%YAML 1.1
%TAG !u! tag:unity3d.com,2011:
--- !u!1 &6758375204791416833
GameObject:
  m_ObjectHideFlags: 0
  m_CorrespondingSourceObject: {fileID: 0}
  m_PrefabInstance: {fileID: 0}
  m_PrefabAsset: {fileID: 0}
  serializedVersion: 6
  m_Component:
  - component: {fileID: 6758375204791116833}
  m_Layer: 0
  m_Name: LeftForeArm
  m_TagString: Untagged
  m_Icon: {fileID: 0}
  m_NavMeshLayer: 0
  m_StaticEditorFlags: 0
  m_IsActive: 1
--- !u!4 &6758375204791116833
Transform:
  m_ObjectHideFlags: 0
  m_CorrespondingSourceObject: {fileID: 0}
  m_PrefabInstance: {fileID: 0}
  m_PrefabAsset: {fileID: 0}
  m_GameObject: {fileID: 6758375204791416833}
  m_LocalRotation: {x: 0, y: 0, z: -0.38268343, w: 0.92387956}
  m_LocalPosition: {x: -0.24907593, y: 6.988088e-16, z: -1.3322652e-17}
  m_LocalScale: {x: 1, y: 1, z: 1}
  m_Children:
  - {fileID: 6758375204791116839}
  m_Father: {fileID: 6758375204791116849}
  m_RootOrder: 0
  m_LocalEulerAnglesHint: {x: 0, y: 0, z: -45}
--- !u!1 &6758375204791416835
GameObject:
  m_ObjectHideFlags: 0
  m_CorrespondingSourceObject: {fileID: 0}
  m_PrefabInstance: {fileID: 0}
  m_PrefabAsset: {fileID: 0}
  serializedVersion: 6
  m_Component:
  - component: {fileID: 6758375204791116835}
  m_Layer: 0
  m_Name: LeftFoot
  m_TagString: Untagged
  m_Icon: {fileID: 0}
  m_NavMeshLayer: 0
  m_StaticEditorFlags: 0
  m_IsActive: 1
--- !u!4 &6758375204791116835
Transform:
  m_ObjectHideFlags: 0
  m_CorrespondingSourceObject: {fileID: 0}
  m_PrefabInstance: {fileID: 0}
  m_PrefabAsset: {fileID: 0}
  m_GameObject: {fileID: 6758375204791416835}
  m_LocalRotation: {x: -1.8197973e-23, y: 0.00000024536433, z: 7.888609e-31, w: 1}
  m_LocalPosition: {x: -0.15603116, y: -5.2409446e-17, z: 0}
  m_LocalScale: {x: 1, y: 1, z: 1}
  m_Children:
  - {fileID: 6758375204791116845}
  m_Father: {fileID: 6758375204791116855}
  m_RootOrder: 0
  m_LocalEulerAnglesHint: {x: 0, y: 0, z: 0}
--- !u!1 &6758375204791416837
GameObject:
  m_ObjectHideFlags: 0
  m_CorrespondingSourceObject: {fileID: 0}
  m_PrefabInstance: {fileID: 0}
  m_PrefabAsset: {fileID: 0}
  serializedVersion: 6
  m_Component:
  - component: {fileID: 6758375204791116837}
  m_Layer: 0
  m_Name: LeftHandEND
  m_TagString: Untagged
  m_Icon: {fileID: 0}
  m_NavMeshLayer: 0
  m_StaticEditorFlags: 0
  m_IsActive: 1
--- !u!4 &6758375204791116837
Transform:
  m_ObjectHideFlags: 0
  m_CorrespondingSourceObject: {fileID: 0}
  m_PrefabInstance: {fileID: 0}
  m_PrefabAsset: {fileID: 0}
  m_GameObject: {fileID: 6758375204791416837}
  m_LocalRotation: {x: 0, y: -0, z: -0, w: 1}
  m_LocalPosition: {x: -0.1068511, y: -3.6741073e-16, z: -4.440892e-18}
  m_LocalScale: {x: 1, y: 1, z: 1}
  m_Children: []
  m_Father: {fileID: 6758375204791116839}
  m_RootOrder: 0
  m_LocalEulerAnglesHint: {x: 0, y: 0, z: 0}
--- !u!1 &6758375204791416839
GameObject:
  m_ObjectHideFlags: 0
  m_CorrespondingSourceObject: {fileID: 0}
  m_PrefabInstance: {fileID: 0}
  m_PrefabAsset: {fileID: 0}
  serializedVersion: 6
  m_Component:
  - component: {fileID: 6758375204791116839}
  m_Layer: 0
  m_Name: LeftHand
  m_TagString: Untagged
  m_Icon: {fileID: 0}
  m_NavMeshLayer: 0
  m_StaticEditorFlags: 0
  m_IsActive: 1
--- !u!4 &6758375204791116839
Transform:
  m_ObjectHideFlags: 0
  m_CorrespondingSourceObject: {fileID: 0}
  m_PrefabInstance: {fileID: 0}
  m_PrefabAsset: {fileID: 0}
  m_GameObject: {fileID: 6758375204791416839}
  m_LocalRotation: {x: -0.0000010323558, y: 0.0000020714642, z: -0.0000013990411,
    w: 1}
  m_LocalPosition: {x: -0.2347236, y: -5.9792813e-16, z: 4.440892e-18}
  m_LocalScale: {x: 1, y: 1, z: 1}
  m_Children:
  - {fileID: 6758375204791116837}
  m_Father: {fileID: 6758375204791116833}
  m_RootOrder: 0
  m_LocalEulerAnglesHint: {x: 0, y: 0, z: 0}
--- !u!1 &6758375204791416841
GameObject:
  m_ObjectHideFlags: 0
  m_CorrespondingSourceObject: {fileID: 0}
  m_PrefabInstance: {fileID: 0}
  m_PrefabAsset: {fileID: 0}
  serializedVersion: 6
  m_Component:
  - component: {fileID: 6758375204791116841}
  m_Layer: 0
  m_Name: LeftEyelidDown
  m_TagString: Untagged
  m_Icon: {fileID: 0}
  m_NavMeshLayer: 0
  m_StaticEditorFlags: 0
  m_IsActive: 1
--- !u!4 &6758375204791116841
Transform:
  m_ObjectHideFlags: 0
  m_CorrespondingSourceObject: {fileID: 0}
  m_PrefabInstance: {fileID: 0}
  m_PrefabAsset: {fileID: 0}
  m_GameObject: {fileID: 6758375204791416841}
  m_LocalRotation: {x: 0, y: 0.76604444, z: 0, w: 0.64278764}
  m_LocalPosition: {x: -0.2479588, y: -0.123310275, z: 0.14039786}
  m_LocalScale: {x: 1, y: 1, z: 1}
  m_Children: []
  m_Father: {fileID: 6758375204791116859}
  m_RootOrder: 3
  m_LocalEulerAnglesHint: {x: 0, y: 100, z: 0}
--- !u!1 &6758375204791416843
GameObject:
  m_ObjectHideFlags: 0
  m_CorrespondingSourceObject: {fileID: 0}
  m_PrefabInstance: {fileID: 0}
  m_PrefabAsset: {fileID: 0}
  serializedVersion: 6
  m_Component:
  - component: {fileID: 6758375204791116843}
  m_Layer: 0
  m_Name: LeftEyebrow
  m_TagString: Untagged
  m_Icon: {fileID: 0}
  m_NavMeshLayer: 0
  m_StaticEditorFlags: 0
  m_IsActive: 1
--- !u!4 &6758375204791116843
Transform:
  m_ObjectHideFlags: 0
  m_CorrespondingSourceObject: {fileID: 0}
  m_PrefabInstance: {fileID: 0}
  m_PrefabAsset: {fileID: 0}
  m_GameObject: {fileID: 6758375204791416843}
  m_LocalRotation: {x: 0, y: 0.38268343, z: 0, w: 0.92387956}
  m_LocalPosition: {x: -0.36744747, y: -0.12687586, z: 0.16618341}
  m_LocalScale: {x: 1, y: 1, z: 1}
  m_Children: []
  m_Father: {fileID: 6758375204791116859}
  m_RootOrder: 2
  m_LocalEulerAnglesHint: {x: 0, y: 45, z: 0}
--- !u!1 &6758375204791416845
GameObject:
  m_ObjectHideFlags: 0
  m_CorrespondingSourceObject: {fileID: 0}
  m_PrefabInstance: {fileID: 0}
  m_PrefabAsset: {fileID: 0}
  serializedVersion: 6
  m_Component:
  - component: {fileID: 6758375204791116845}
  m_Layer: 0
  m_Name: LeftFoorEND
  m_TagString: Untagged
  m_Icon: {fileID: 0}
  m_NavMeshLayer: 0
  m_StaticEditorFlags: 0
  m_IsActive: 1
--- !u!4 &6758375204791116845
Transform:
  m_ObjectHideFlags: 0
  m_CorrespondingSourceObject: {fileID: 0}
  m_PrefabInstance: {fileID: 0}
  m_PrefabAsset: {fileID: 0}
  m_GameObject: {fileID: 6758375204791416845}
  m_LocalRotation: {x: 0, y: -0, z: -0, w: 1}
  m_LocalPosition: {x: -0.046951346, y: -1.0425293e-17, z: 0.104955554}
  m_LocalScale: {x: 1, y: 1, z: 1}
  m_Children: []
  m_Father: {fileID: 6758375204791116835}
  m_RootOrder: 0
  m_LocalEulerAnglesHint: {x: 0, y: 0, z: 0}
--- !u!1 &6758375204791416847
GameObject:
  m_ObjectHideFlags: 0
  m_CorrespondingSourceObject: {fileID: 0}
  m_PrefabInstance: {fileID: 0}
  m_PrefabAsset: {fileID: 0}
  serializedVersion: 6
  m_Component:
  - component: {fileID: 6758375204791116847}
  m_Layer: 0
  m_Name: LeftEyelidUp
  m_TagString: Untagged
  m_Icon: {fileID: 0}
  m_NavMeshLayer: 0
  m_StaticEditorFlags: 0
  m_IsActive: 1
--- !u!4 &6758375204791116847
Transform:
  m_ObjectHideFlags: 0
  m_CorrespondingSourceObject: {fileID: 0}
  m_PrefabInstance: {fileID: 0}
  m_PrefabAsset: {fileID: 0}
  m_GameObject: {fileID: 6758375204791416847}
  m_LocalRotation: {x: 0, y: 0, z: -0.08715578, w: 0.9961947}
  m_LocalPosition: {x: -0.2479588, y: -0.123310275, z: 0.14039786}
  m_LocalScale: {x: 1, y: 1, z: 1}
  m_Children: []
  m_Father: {fileID: 6758375204791116859}
  m_RootOrder: 4
  m_LocalEulerAnglesHint: {x: 0, y: 0, z: -10}
--- !u!1 &6758375204791416849
GameObject:
  m_ObjectHideFlags: 0
  m_CorrespondingSourceObject: {fileID: 0}
  m_PrefabInstance: {fileID: 0}
  m_PrefabAsset: {fileID: 0}
  serializedVersion: 6
  m_Component:
  - component: {fileID: 6758375204791116849}
  m_Layer: 0
  m_Name: LeftArm
  m_TagString: Untagged
  m_Icon: {fileID: 0}
  m_NavMeshLayer: 0
  m_StaticEditorFlags: 0
  m_IsActive: 1
--- !u!4 &6758375204791116849
Transform:
  m_ObjectHideFlags: 0
  m_CorrespondingSourceObject: {fileID: 0}
  m_PrefabInstance: {fileID: 0}
  m_PrefabAsset: {fileID: 0}
  m_GameObject: {fileID: 6758375204791416849}
  m_LocalRotation: {x: 0.0000013977346, y: -0.0000018447384, z: 0.18498962, w: 0.98274046}
  m_LocalPosition: {x: -0.09357534, y: 0.0039133863, z: -1.7763568e-17}
  m_LocalScale: {x: 1, y: 1, z: 1}
  m_Children:
  - {fileID: 6758375204791116833}
  m_Father: {fileID: 6758375204791116825}
  m_RootOrder: 0
  m_LocalEulerAnglesHint: {x: 0, y: 0, z: 0}
--- !u!1 &6758375204791416851
GameObject:
  m_ObjectHideFlags: 0
  m_CorrespondingSourceObject: {fileID: 0}
  m_PrefabInstance: {fileID: 0}
  m_PrefabAsset: {fileID: 0}
  serializedVersion: 6
  m_Component:
  - component: {fileID: 6758375204791116851}
  - component: {fileID: 6758375204800891867}
  m_Layer: 0
  m_Name: JLEndSceneModel
  m_TagString: Untagged
  m_Icon: {fileID: 0}
  m_NavMeshLayer: 0
  m_StaticEditorFlags: 0
  m_IsActive: 1
--- !u!4 &6758375204791116851
Transform:
  m_ObjectHideFlags: 0
  m_CorrespondingSourceObject: {fileID: 0}
  m_PrefabInstance: {fileID: 0}
  m_PrefabAsset: {fileID: 0}
  m_GameObject: {fileID: 6758375204791416851}
  m_LocalRotation: {x: 0, y: 0, z: 0, w: 1}
  m_LocalPosition: {x: 9.593652, y: 1.0000001, z: -4.980099}
  m_LocalScale: {x: 1, y: 1, z: 1}
  m_Children:
  - {fileID: 6758375204791116861}
  - {fileID: 6758375204791116921}
  - {fileID: 3509432678530753680}
  m_Father: {fileID: 0}
  m_RootOrder: 0
  m_LocalEulerAnglesHint: {x: 0, y: 0, z: 0}
--- !u!95 &6758375204800891867
Animator:
  serializedVersion: 3
  m_ObjectHideFlags: 0
  m_CorrespondingSourceObject: {fileID: 0}
  m_PrefabInstance: {fileID: 0}
  m_PrefabAsset: {fileID: 0}
  m_GameObject: {fileID: 6758375204791416851}
  m_Enabled: 1
  m_Avatar: {fileID: 9000000, guid: b44f3940c4940544a8c2c6aee5fa086f, type: 3}
  m_Controller: {fileID: 0}
  m_CullingMode: 1
  m_UpdateMode: 0
  m_ApplyRootMotion: 1
  m_LinearVelocityBlending: 0
  m_WarningMessage: 
  m_HasTransformHierarchy: 1
  m_AllowConstantClipSamplingOptimization: 1
  m_KeepAnimatorControllerStateOnDisable: 0
--- !u!1 &6758375204791416853
GameObject:
  m_ObjectHideFlags: 0
  m_CorrespondingSourceObject: {fileID: 0}
  m_PrefabInstance: {fileID: 0}
  m_PrefabAsset: {fileID: 0}
  serializedVersion: 6
  m_Component:
  - component: {fileID: 6758375204791116853}
  m_Layer: 0
  m_Name: LeftEye
  m_TagString: Untagged
  m_Icon: {fileID: 0}
  m_NavMeshLayer: 0
  m_StaticEditorFlags: 0
  m_IsActive: 1
--- !u!4 &6758375204791116853
Transform:
  m_ObjectHideFlags: 0
  m_CorrespondingSourceObject: {fileID: 0}
  m_PrefabInstance: {fileID: 0}
  m_PrefabAsset: {fileID: 0}
  m_GameObject: {fileID: 6758375204791416853}
  m_LocalRotation: {x: 0.000000013930466, y: 1, z: -0.00006782109, w: 0.000060986433}
  m_LocalPosition: {x: -0.24035883, y: -0.123310275, z: 0.09902587}
  m_LocalScale: {x: 1, y: 1, z: 1}
  m_Children: []
  m_Father: {fileID: 6758375204791116859}
  m_RootOrder: 1
  m_LocalEulerAnglesHint: {x: 0, y: 0, z: 0}
--- !u!1 &6758375204791416855
GameObject:
  m_ObjectHideFlags: 0
  m_CorrespondingSourceObject: {fileID: 0}
  m_PrefabInstance: {fileID: 0}
  m_PrefabAsset: {fileID: 0}
  serializedVersion: 6
  m_Component:
  - component: {fileID: 6758375204791116855}
  m_Layer: 0
  m_Name: LeftCalf
  m_TagString: Untagged
  m_Icon: {fileID: 0}
  m_NavMeshLayer: 0
  m_StaticEditorFlags: 0
  m_IsActive: 1
--- !u!4 &6758375204791116855
Transform:
  m_ObjectHideFlags: 0
  m_CorrespondingSourceObject: {fileID: 0}
  m_PrefabInstance: {fileID: 0}
  m_PrefabAsset: {fileID: 0}
  m_GameObject: {fileID: 6758375204791416855}
  m_LocalRotation: {x: -2.590098e-16, y: -0.0000005349913, z: 9.797884e-15, w: 1}
  m_LocalPosition: {x: -0.16461787, y: -3.2269087e-17, z: -0.000000003574569}
  m_LocalScale: {x: 1, y: 1, z: 1}
  m_Children:
  - {fileID: 6758375204791116835}
  m_Father: {fileID: 6758375204791116827}
  m_RootOrder: 0
  m_LocalEulerAnglesHint: {x: 0, y: 0, z: 0}
--- !u!1 &6758375204791416857
GameObject:
  m_ObjectHideFlags: 0
  m_CorrespondingSourceObject: {fileID: 0}
  m_PrefabInstance: {fileID: 0}
  m_PrefabAsset: {fileID: 0}
  serializedVersion: 6
  m_Component:
  - component: {fileID: 6758375204791116857}
  m_Layer: 0
  m_Name: HeadEND
  m_TagString: Untagged
  m_Icon: {fileID: 0}
  m_NavMeshLayer: 0
  m_StaticEditorFlags: 0
  m_IsActive: 1
--- !u!4 &6758375204791116857
Transform:
  m_ObjectHideFlags: 0
  m_CorrespondingSourceObject: {fileID: 0}
  m_PrefabInstance: {fileID: 0}
  m_PrefabAsset: {fileID: 0}
  m_GameObject: {fileID: 6758375204791416857}
  m_LocalRotation: {x: 0, y: -0, z: -0, w: 1}
  m_LocalPosition: {x: -0.43319148, y: 9.618783e-17, z: 0}
  m_LocalScale: {x: 1, y: 1, z: 1}
  m_Children: []
  m_Father: {fileID: 6758375204791116859}
  m_RootOrder: 0
  m_LocalEulerAnglesHint: {x: 0, y: 0, z: 0}
--- !u!1 &6758375204791416859
GameObject:
  m_ObjectHideFlags: 0
  m_CorrespondingSourceObject: {fileID: 0}
  m_PrefabInstance: {fileID: 0}
  m_PrefabAsset: {fileID: 0}
  serializedVersion: 6
  m_Component:
  - component: {fileID: 6758375204791116859}
  m_Layer: 0
  m_Name: Head
  m_TagString: Untagged
  m_Icon: {fileID: 0}
  m_NavMeshLayer: 0
  m_StaticEditorFlags: 0
  m_IsActive: 1
--- !u!4 &6758375204791116859
Transform:
  m_ObjectHideFlags: 0
  m_CorrespondingSourceObject: {fileID: 0}
  m_PrefabInstance: {fileID: 0}
  m_PrefabAsset: {fileID: 0}
  m_GameObject: {fileID: 6758375204791416859}
  m_LocalRotation: {x: 0, y: -0, z: -0, w: 1}
  m_LocalPosition: {x: -0.047018725, y: 1.0408341e-17, z: 4.440892e-18}
  m_LocalScale: {x: 1, y: 1, z: 1}
  m_Children:
  - {fileID: 6758375204791116857}
  - {fileID: 6758375204791116853}
  - {fileID: 6758375204791116843}
  - {fileID: 6758375204791116841}
  - {fileID: 6758375204791116847}
  - {fileID: 6758375204791116831}
  - {fileID: 6758375204791116823}
  - {fileID: 6758375204791116821}
  - {fileID: 6758375204791116811}
  - {fileID: 6758375204791116809}
  m_Father: {fileID: 6758375204791116829}
  m_RootOrder: 0
  m_LocalEulerAnglesHint: {x: 0, y: 0, z: 0}
--- !u!1 &6758375204791416861
GameObject:
  m_ObjectHideFlags: 0
  m_CorrespondingSourceObject: {fileID: 0}
  m_PrefabInstance: {fileID: 0}
  m_PrefabAsset: {fileID: 0}
  serializedVersion: 6
  m_Component:
  - component: {fileID: 6758375204791116861}
  - component: {fileID: 6758375204796691739}
  m_Layer: 0
  m_Name: JohnLemon
  m_TagString: Untagged
  m_Icon: {fileID: 0}
  m_NavMeshLayer: 0
  m_StaticEditorFlags: 0
  m_IsActive: 1
--- !u!4 &6758375204791116861
Transform:
  m_ObjectHideFlags: 0
  m_CorrespondingSourceObject: {fileID: 0}
  m_PrefabInstance: {fileID: 0}
  m_PrefabAsset: {fileID: 0}
  m_GameObject: {fileID: 6758375204791416861}
  m_LocalRotation: {x: 0, y: -0, z: -0, w: 1}
  m_LocalPosition: {x: -0, y: 0, z: 0}
  m_LocalScale: {x: 1, y: 1, z: 1}
  m_Children: []
  m_Father: {fileID: 6758375204791116851}
  m_RootOrder: 0
  m_LocalEulerAnglesHint: {x: 0, y: 0, z: 0}
--- !u!137 &6758375204796691739
SkinnedMeshRenderer:
  m_ObjectHideFlags: 0
  m_CorrespondingSourceObject: {fileID: 0}
  m_PrefabInstance: {fileID: 0}
  m_PrefabAsset: {fileID: 0}
  m_GameObject: {fileID: 6758375204791416861}
  m_Enabled: 1
  m_CastShadows: 1
  m_ReceiveShadows: 1
  m_DynamicOccludee: 1
  m_MotionVectors: 1
  m_LightProbeUsage: 1
  m_ReflectionProbeUsage: 1
  m_RayTracingMode: 3
  m_RayTraceProcedural: 0
  m_RenderingLayerMask: 1
  m_RendererPriority: 0
  m_Materials:
  - {fileID: 2100000, guid: a0f36fc0d25b946499ac2f95f2b6ab9b, type: 2}
  - {fileID: 2100000, guid: ec8dc473ea10be74bada0165e17a99d9, type: 2}
  m_StaticBatchInfo:
    firstSubMesh: 0
    subMeshCount: 0
  m_StaticBatchRoot: {fileID: 0}
  m_ProbeAnchor: {fileID: 0}
  m_LightProbeVolumeOverride: {fileID: 0}
  m_ScaleInLightmap: 1
  m_ReceiveGI: 1
  m_PreserveUVs: 0
  m_IgnoreNormalsForChartDetection: 0
  m_ImportantGI: 0
  m_StitchLightmapSeams: 1
  m_SelectedEditorRenderState: 3
  m_MinimumChartSize: 4
  m_AutoUVMaxDistance: 0.5
  m_AutoUVMaxAngle: 89
  m_LightmapParameters: {fileID: 0}
  m_SortingLayerID: 0
  m_SortingLayer: 0
  m_SortingOrder: 0
  serializedVersion: 2
  m_Quality: 0
  m_UpdateWhenOffscreen: 0
  m_SkinnedMotionVectors: 1
  m_Mesh: {fileID: 4300000, guid: b44f3940c4940544a8c2c6aee5fa086f, type: 3}
  m_Bones:
  - {fileID: 6758375204791116863}
  - {fileID: 6758375204791116927}
  - {fileID: 6758375204791116925}
  - {fileID: 6758375204791116829}
  - {fileID: 6758375204791116859}
  - {fileID: 6758375204791116857}
  - {fileID: 6758375204791116843}
  - {fileID: 6758375204791116821}
  - {fileID: 6758375204791116831}
  - {fileID: 6758375204791116847}
  - {fileID: 6758375204791116841}
  - {fileID: 6758375204791116811}
  - {fileID: 6758375204791116809}
  - {fileID: 6758375204791116825}
  - {fileID: 6758375204791116849}
  - {fileID: 6758375204791116833}
  - {fileID: 6758375204791116839}
  - {fileID: 6758375204791116837}
  - {fileID: 6758375204791116923}
  - {fileID: 6758375204791116819}
  - {fileID: 6758375204791116803}
  - {fileID: 6758375204791116801}
  - {fileID: 6758375204791116807}
  - {fileID: 6758375204791116827}
  - {fileID: 6758375204791116855}
  - {fileID: 6758375204791116835}
  - {fileID: 6758375204791116845}
  - {fileID: 6758375204791116805}
  - {fileID: 6758375204791116817}
  - {fileID: 6758375204791116813}
  - {fileID: 6758375204791116815}
  - {fileID: 6758375204791116853}
  - {fileID: 6758375204791116823}
  m_BlendShapeWeights: []
  m_RootBone: {fileID: 6758375204791116863}
  m_AABB:
    m_Center: {x: -0.3211945, y: -0.000323236, z: 0.0055948943}
    m_Extent: {x: 0.71350014, y: 0.72880006, z: 0.21759997}
  m_DirtyAABB: 0
--- !u!1 &6758375204791416863
GameObject:
  m_ObjectHideFlags: 0
  m_CorrespondingSourceObject: {fileID: 0}
  m_PrefabInstance: {fileID: 0}
  m_PrefabAsset: {fileID: 0}
  serializedVersion: 6
  m_Component:
  - component: {fileID: 6758375204791116863}
  m_Layer: 0
  m_Name: Hips
  m_TagString: Untagged
  m_Icon: {fileID: 0}
  m_NavMeshLayer: 0
  m_StaticEditorFlags: 0
  m_IsActive: 1
--- !u!4 &6758375204791116863
Transform:
  m_ObjectHideFlags: 0
  m_CorrespondingSourceObject: {fileID: 0}
  m_PrefabInstance: {fileID: 0}
  m_PrefabAsset: {fileID: 0}
  m_GameObject: {fileID: 6758375204791416863}
  m_LocalRotation: {x: 0, y: -0, z: -0.7071068, w: 0.7071068}
  m_LocalPosition: {x: 0.00032327874, y: 0.39290556, z: 0.023705129}
  m_LocalScale: {x: 1, y: 1, z: 1}
  m_Children:
  - {fileID: 6758375204791116827}
  - {fileID: 6758375204791116805}
  - {fileID: 6758375204791116927}
  m_Father: {fileID: 6758375204791116921}
  m_RootOrder: 0
  m_LocalEulerAnglesHint: {x: 0, y: 0, z: 0}
--- !u!1 &6758375204791416921
GameObject:
  m_ObjectHideFlags: 0
  m_CorrespondingSourceObject: {fileID: 0}
  m_PrefabInstance: {fileID: 0}
  m_PrefabAsset: {fileID: 0}
  serializedVersion: 6
  m_Component:
  - component: {fileID: 6758375204791116921}
  m_Layer: 0
  m_Name: Root
  m_TagString: Untagged
  m_Icon: {fileID: 0}
  m_NavMeshLayer: 0
  m_StaticEditorFlags: 0
  m_IsActive: 1
--- !u!4 &6758375204791116921
Transform:
  m_ObjectHideFlags: 0
  m_CorrespondingSourceObject: {fileID: 0}
  m_PrefabInstance: {fileID: 0}
  m_PrefabAsset: {fileID: 0}
  m_GameObject: {fileID: 6758375204791416921}
  m_LocalRotation: {x: 0, y: -0, z: -0, w: 1}
  m_LocalPosition: {x: -0, y: 0, z: 0}
  m_LocalScale: {x: 1, y: 1, z: 1}
  m_Children:
  - {fileID: 6758375204791116863}
  m_Father: {fileID: 6758375204791116851}
  m_RootOrder: 1
  m_LocalEulerAnglesHint: {x: 0, y: 0, z: 0}
--- !u!1 &6758375204791416923
GameObject:
  m_ObjectHideFlags: 0
  m_CorrespondingSourceObject: {fileID: 0}
  m_PrefabInstance: {fileID: 0}
  m_PrefabAsset: {fileID: 0}
  serializedVersion: 6
  m_Component:
  - component: {fileID: 6758375204791116923}
  m_Layer: 0
  m_Name: RightShoulder
  m_TagString: Untagged
  m_Icon: {fileID: 0}
  m_NavMeshLayer: 0
  m_StaticEditorFlags: 0
  m_IsActive: 1
--- !u!4 &6758375204791116923
Transform:
  m_ObjectHideFlags: 0
  m_CorrespondingSourceObject: {fileID: 0}
  m_PrefabInstance: {fileID: 0}
  m_PrefabAsset: {fileID: 0}
  m_GameObject: {fileID: 6758375204791416923}
  m_LocalRotation: {x: -0.38268343, y: -0.92387956, z: 0, w: 0}
  m_LocalPosition: {x: -0.15408951, y: 0.045143023, z: -0.0031601298}
  m_LocalScale: {x: 1, y: 1, z: 1}
  m_Children:
  - {fileID: 6758375204791116819}
  m_Father: {fileID: 6758375204791116925}
  m_RootOrder: 2
  m_LocalEulerAnglesHint: {x: 0, y: -180, z: 45}
--- !u!1 &6758375204791416925
GameObject:
  m_ObjectHideFlags: 0
  m_CorrespondingSourceObject: {fileID: 0}
  m_PrefabInstance: {fileID: 0}
  m_PrefabAsset: {fileID: 0}
  serializedVersion: 6
  m_Component:
  - component: {fileID: 6758375204791116925}
  m_Layer: 0
  m_Name: Spine2
  m_TagString: Untagged
  m_Icon: {fileID: 0}
  m_NavMeshLayer: 0
  m_StaticEditorFlags: 0
  m_IsActive: 1
--- !u!4 &6758375204791116925
Transform:
  m_ObjectHideFlags: 0
  m_CorrespondingSourceObject: {fileID: 0}
  m_PrefabInstance: {fileID: 0}
  m_PrefabAsset: {fileID: 0}
  m_GameObject: {fileID: 6758375204791416925}
  m_LocalRotation: {x: 0, y: -0, z: -0, w: 1}
  m_LocalPosition: {x: -0.17495, y: 3.8857805e-17, z: 0}
  m_LocalScale: {x: 1, y: 1, z: 1}
  m_Children:
  - {fileID: 6758375204791116825}
  - {fileID: 6758375204791116829}
  - {fileID: 6758375204791116923}
  m_Father: {fileID: 6758375204791116927}
  m_RootOrder: 0
  m_LocalEulerAnglesHint: {x: 0, y: 0, z: 0}
--- !u!1 &6758375204791416927
GameObject:
  m_ObjectHideFlags: 0
  m_CorrespondingSourceObject: {fileID: 0}
  m_PrefabInstance: {fileID: 0}
  m_PrefabAsset: {fileID: 0}
  serializedVersion: 6
  m_Component:
  - component: {fileID: 6758375204791116927}
  m_Layer: 0
  m_Name: Spine1
  m_TagString: Untagged
  m_Icon: {fileID: 0}
  m_NavMeshLayer: 0
  m_StaticEditorFlags: 0
  m_IsActive: 1
--- !u!4 &6758375204791116927
Transform:
  m_ObjectHideFlags: 0
  m_CorrespondingSourceObject: {fileID: 0}
  m_PrefabInstance: {fileID: 0}
  m_PrefabAsset: {fileID: 0}
  m_GameObject: {fileID: 6758375204791416927}
  m_LocalRotation: {x: 0, y: -0, z: -0, w: 1}
  m_LocalPosition: {x: -0.054252915, y: 1.20736755e-17, z: 8.881784e-18}
  m_LocalScale: {x: 1, y: 1, z: 1}
  m_Children:
  - {fileID: 6758375204791116925}
  m_Father: {fileID: 6758375204791116863}
  m_RootOrder: 2
  m_LocalEulerAnglesHint: {x: 0, y: 0, z: 0}
--- !u!1 &6758375204791416929
GameObject:
  m_ObjectHideFlags: 0
  m_CorrespondingSourceObject: {fileID: 0}
  m_PrefabInstance: {fileID: 0}
  m_PrefabAsset: {fileID: 0}
  serializedVersion: 6
  m_Component:
  - component: {fileID: 6758375204791116801}
  m_Layer: 0
  m_Name: RightHand
  m_TagString: Untagged
  m_Icon: {fileID: 0}
  m_NavMeshLayer: 0
  m_StaticEditorFlags: 0
  m_IsActive: 1
--- !u!4 &6758375204791116801
Transform:
  m_ObjectHideFlags: 0
  m_CorrespondingSourceObject: {fileID: 0}
  m_PrefabInstance: {fileID: 0}
  m_PrefabAsset: {fileID: 0}
  m_GameObject: {fileID: 6758375204791416929}
  m_LocalRotation: {x: -0.0000005891861, y: 0.00000055749774, z: -0.0000007748266,
    w: 1}
  m_LocalPosition: {x: 0.234724, y: 0, z: 2.2204459e-17}
  m_LocalScale: {x: 1, y: 1, z: 1}
  m_Children:
  - {fileID: 6758375204791116807}
  m_Father: {fileID: 6758375204791116803}
  m_RootOrder: 0
  m_LocalEulerAnglesHint: {x: 0, y: 0, z: 0}
--- !u!1 &6758375204791416931
GameObject:
  m_ObjectHideFlags: 0
  m_CorrespondingSourceObject: {fileID: 0}
  m_PrefabInstance: {fileID: 0}
  m_PrefabAsset: {fileID: 0}
  serializedVersion: 6
  m_Component:
  - component: {fileID: 6758375204791116803}
  m_Layer: 0
  m_Name: RightForeArm
  m_TagString: Untagged
  m_Icon: {fileID: 0}
  m_NavMeshLayer: 0
  m_StaticEditorFlags: 0
  m_IsActive: 1
--- !u!4 &6758375204791116803
Transform:
  m_ObjectHideFlags: 0
  m_CorrespondingSourceObject: {fileID: 0}
  m_PrefabInstance: {fileID: 0}
  m_PrefabAsset: {fileID: 0}
  m_GameObject: {fileID: 6758375204791416931}
  m_LocalRotation: {x: 0, y: 0, z: -0.38268343, w: 0.92387956}
  m_LocalPosition: {x: 0.25109458, y: -4.203877e-16, z: 2.6523412e-17}
  m_LocalScale: {x: 1, y: 1, z: 1}
  m_Children:
  - {fileID: 6758375204791116801}
  m_Father: {fileID: 6758375204791116819}
  m_RootOrder: 0
  m_LocalEulerAnglesHint: {x: 0, y: 0, z: -45}
--- !u!1 &6758375204791416933
GameObject:
  m_ObjectHideFlags: 0
  m_CorrespondingSourceObject: {fileID: 0}
  m_PrefabInstance: {fileID: 0}
  m_PrefabAsset: {fileID: 0}
  serializedVersion: 6
  m_Component:
  - component: {fileID: 6758375204791116805}
  m_Layer: 0
  m_Name: RightLeg
  m_TagString: Untagged
  m_Icon: {fileID: 0}
  m_NavMeshLayer: 0
  m_StaticEditorFlags: 0
  m_IsActive: 1
--- !u!4 &6758375204791116805
Transform:
  m_ObjectHideFlags: 0
  m_CorrespondingSourceObject: {fileID: 0}
  m_PrefabInstance: {fileID: 0}
  m_PrefabAsset: {fileID: 0}
  m_GameObject: {fileID: 6758375204791416933}
  m_LocalRotation: {x: 1, y: 9.229475e-10, z: 0.00000008846593, w: -1.4288175e-16}
  m_LocalPosition: {x: 0.021578005, y: 0.06640862, z: 0.0061707697}
  m_LocalScale: {x: 1, y: 1, z: 1}
  m_Children:
  - {fileID: 6758375204791116817}
  m_Father: {fileID: 6758375204791116863}
  m_RootOrder: 1
  m_LocalEulerAnglesHint: {x: 0, y: 0, z: 0}
--- !u!1 &6758375204791416935
GameObject:
  m_ObjectHideFlags: 0
  m_CorrespondingSourceObject: {fileID: 0}
  m_PrefabInstance: {fileID: 0}
  m_PrefabAsset: {fileID: 0}
  serializedVersion: 6
  m_Component:
  - component: {fileID: 6758375204791116807}
  m_Layer: 0
  m_Name: RightHandEND
  m_TagString: Untagged
  m_Icon: {fileID: 0}
  m_NavMeshLayer: 0
  m_StaticEditorFlags: 0
  m_IsActive: 1
--- !u!4 &6758375204791116807
Transform:
  m_ObjectHideFlags: 0
  m_CorrespondingSourceObject: {fileID: 0}
  m_PrefabInstance: {fileID: 0}
  m_PrefabAsset: {fileID: 0}
  m_GameObject: {fileID: 6758375204791416935}
  m_LocalRotation: {x: 0, y: -0, z: -0, w: 1}
  m_LocalPosition: {x: 0.106851, y: 0, z: 1.3322676e-17}
  m_LocalScale: {x: 1, y: 1, z: 1}
  m_Children: []
  m_Father: {fileID: 6758375204791116801}
  m_RootOrder: 0
  m_LocalEulerAnglesHint: {x: 0, y: 0, z: 0}
--- !u!1 &6758375204791416937
GameObject:
  m_ObjectHideFlags: 0
  m_CorrespondingSourceObject: {fileID: 0}
  m_PrefabInstance: {fileID: 0}
  m_PrefabAsset: {fileID: 0}
  serializedVersion: 6
  m_Component:
  - component: {fileID: 6758375204791116809}
  m_Layer: 0
  m_Name: RightEyelidUp
  m_TagString: Untagged
  m_Icon: {fileID: 0}
  m_NavMeshLayer: 0
  m_StaticEditorFlags: 0
  m_IsActive: 1
--- !u!4 &6758375204791116809
Transform:
  m_ObjectHideFlags: 0
  m_CorrespondingSourceObject: {fileID: 0}
  m_PrefabInstance: {fileID: 0}
  m_PrefabAsset: {fileID: 0}
  m_GameObject: {fileID: 6758375204791416937}
  m_LocalRotation: {x: 0, y: 0, z: 0.08715578, w: 0.9961947}
  m_LocalPosition: {x: -0.24796002, y: 0.12331095, z: 0.14039664}
  m_LocalScale: {x: 1, y: 1, z: 1}
  m_Children: []
  m_Father: {fileID: 6758375204791116859}
  m_RootOrder: 9
  m_LocalEulerAnglesHint: {x: 0, y: 0, z: 10}
--- !u!1 &6758375204791416939
GameObject:
  m_ObjectHideFlags: 0
  m_CorrespondingSourceObject: {fileID: 0}
  m_PrefabInstance: {fileID: 0}
  m_PrefabAsset: {fileID: 0}
  serializedVersion: 6
  m_Component:
  - component: {fileID: 6758375204791116811}
  m_Layer: 0
  m_Name: RightEyelidDown
  m_TagString: Untagged
  m_Icon: {fileID: 0}
  m_NavMeshLayer: 0
  m_StaticEditorFlags: 0
  m_IsActive: 1
--- !u!4 &6758375204791116811
Transform:
  m_ObjectHideFlags: 0
  m_CorrespondingSourceObject: {fileID: 0}
  m_PrefabInstance: {fileID: 0}
  m_PrefabAsset: {fileID: 0}
  m_GameObject: {fileID: 6758375204791416939}
  m_LocalRotation: {x: 0, y: 0.76604444, z: 0, w: 0.64278764}
  m_LocalPosition: {x: -0.24796002, y: 0.12331095, z: 0.14039662}
  m_LocalScale: {x: 1, y: 1, z: 1}
  m_Children: []
  m_Father: {fileID: 6758375204791116859}
  m_RootOrder: 8
  m_LocalEulerAnglesHint: {x: 0, y: 100, z: 0}
--- !u!1 &6758375204791416941
GameObject:
  m_ObjectHideFlags: 0
  m_CorrespondingSourceObject: {fileID: 0}
  m_PrefabInstance: {fileID: 0}
  m_PrefabAsset: {fileID: 0}
  serializedVersion: 6
  m_Component:
  - component: {fileID: 6758375204791116813}
  m_Layer: 0
  m_Name: RightFoot
  m_TagString: Untagged
  m_Icon: {fileID: 0}
  m_NavMeshLayer: 0
  m_StaticEditorFlags: 0
  m_IsActive: 1
--- !u!4 &6758375204791116813
Transform:
  m_ObjectHideFlags: 0
  m_CorrespondingSourceObject: {fileID: 0}
  m_PrefabInstance: {fileID: 0}
  m_PrefabAsset: {fileID: 0}
  m_GameObject: {fileID: 6758375204791416941}
  m_LocalRotation: {x: 6.123235e-17, y: -0.00000011267357, z: 1.2246469e-16, w: 1}
  m_LocalPosition: {x: 0.1560317, y: 3.5527136e-17, z: 0}
  m_LocalScale: {x: 1, y: 1, z: 1}
  m_Children:
  - {fileID: 6758375204791116815}
  m_Father: {fileID: 6758375204791116817}
  m_RootOrder: 0
  m_LocalEulerAnglesHint: {x: 0, y: 0, z: 0}
--- !u!1 &6758375204791416943
GameObject:
  m_ObjectHideFlags: 0
  m_CorrespondingSourceObject: {fileID: 0}
  m_PrefabInstance: {fileID: 0}
  m_PrefabAsset: {fileID: 0}
  serializedVersion: 6
  m_Component:
  - component: {fileID: 6758375204791116815}
  m_Layer: 0
  m_Name: RightFoorEND
  m_TagString: Untagged
  m_Icon: {fileID: 0}
  m_NavMeshLayer: 0
  m_StaticEditorFlags: 0
  m_IsActive: 1
--- !u!4 &6758375204791116815
Transform:
  m_ObjectHideFlags: 0
  m_CorrespondingSourceObject: {fileID: 0}
  m_PrefabInstance: {fileID: 0}
  m_PrefabAsset: {fileID: 0}
  m_GameObject: {fileID: 6758375204791416943}
  m_LocalRotation: {x: 0, y: -0, z: -0, w: 1}
  m_LocalPosition: {x: 0.046951294, y: -8.881784e-18, z: -0.1049551}
  m_LocalScale: {x: 1, y: 1, z: 1}
  m_Children: []
  m_Father: {fileID: 6758375204791116813}
  m_RootOrder: 0
  m_LocalEulerAnglesHint: {x: 0, y: 0, z: 0}
--- !u!1 &6758375204791416945
GameObject:
  m_ObjectHideFlags: 0
  m_CorrespondingSourceObject: {fileID: 0}
  m_PrefabInstance: {fileID: 0}
  m_PrefabAsset: {fileID: 0}
  serializedVersion: 6
  m_Component:
  - component: {fileID: 6758375204791116817}
  m_Layer: 0
  m_Name: RightCalf
  m_TagString: Untagged
  m_Icon: {fileID: 0}
  m_NavMeshLayer: 0
  m_StaticEditorFlags: 0
  m_IsActive: 1
--- !u!4 &6758375204791116817
Transform:
  m_ObjectHideFlags: 0
  m_CorrespondingSourceObject: {fileID: 0}
  m_PrefabInstance: {fileID: 0}
  m_PrefabAsset: {fileID: 0}
  m_GameObject: {fileID: 6758375204791416945}
  m_LocalRotation: {x: -1.755797e-16, y: -0.00000013105247, z: 1.02491185e-16, w: 1}
  m_LocalPosition: {x: 0.16461757, y: 3.5527136e-17, z: 0.000000007931517}
  m_LocalScale: {x: 1, y: 1, z: 1}
  m_Children:
  - {fileID: 6758375204791116813}
  m_Father: {fileID: 6758375204791116805}
  m_RootOrder: 0
  m_LocalEulerAnglesHint: {x: 0, y: 0, z: 0}
--- !u!1 &6758375204791416947
GameObject:
  m_ObjectHideFlags: 0
  m_CorrespondingSourceObject: {fileID: 0}
  m_PrefabInstance: {fileID: 0}
  m_PrefabAsset: {fileID: 0}
  serializedVersion: 6
  m_Component:
  - component: {fileID: 6758375204791116819}
  m_Layer: 0
  m_Name: RightArm
  m_TagString: Untagged
  m_Icon: {fileID: 0}
  m_NavMeshLayer: 0
  m_StaticEditorFlags: 0
  m_IsActive: 1
--- !u!4 &6758375204791116819
Transform:
  m_ObjectHideFlags: 0
  m_CorrespondingSourceObject: {fileID: 0}
  m_PrefabInstance: {fileID: 0}
  m_PrefabAsset: {fileID: 0}
  m_GameObject: {fileID: 6758375204791416947}
  m_LocalRotation: {x: 0.00000073443715, y: -0.00000042904048, z: 0.184989, w: 0.9827406}
  m_LocalPosition: {x: 0.09169469, y: -0.004647737, z: 1.788555e-17}
  m_LocalScale: {x: 1, y: 1, z: 1}
  m_Children:
  - {fileID: 6758375204791116803}
  m_Father: {fileID: 6758375204791116923}
  m_RootOrder: 0
  m_LocalEulerAnglesHint: {x: 0, y: 0, z: 0}
--- !u!1 &6758375204791416949
GameObject:
  m_ObjectHideFlags: 0
  m_CorrespondingSourceObject: {fileID: 0}
  m_PrefabInstance: {fileID: 0}
  m_PrefabAsset: {fileID: 0}
  serializedVersion: 6
  m_Component:
  - component: {fileID: 6758375204791116821}
  m_Layer: 0
  m_Name: RightEyebrow
  m_TagString: Untagged
  m_Icon: {fileID: 0}
  m_NavMeshLayer: 0
  m_StaticEditorFlags: 0
  m_IsActive: 1
--- !u!4 &6758375204791116821
Transform:
  m_ObjectHideFlags: 0
  m_CorrespondingSourceObject: {fileID: 0}
  m_PrefabInstance: {fileID: 0}
  m_PrefabAsset: {fileID: 0}
  m_GameObject: {fileID: 6758375204791416949}
  m_LocalRotation: {x: 0, y: -0.92387956, z: 0, w: 0.38268343}
  m_LocalPosition: {x: -0.36744884, y: 0.12687573, z: 0.16618387}
  m_LocalScale: {x: 1, y: 1, z: 1}
  m_Children: []
  m_Father: {fileID: 6758375204791116859}
  m_RootOrder: 7
  m_LocalEulerAnglesHint: {x: 0, y: -135, z: 0}
--- !u!1 &6758375204791416951
GameObject:
  m_ObjectHideFlags: 0
  m_CorrespondingSourceObject: {fileID: 0}
  m_PrefabInstance: {fileID: 0}
  m_PrefabAsset: {fileID: 0}
  serializedVersion: 6
  m_Component:
  - component: {fileID: 6758375204791116823}
  m_Layer: 0
  m_Name: RightEye
  m_TagString: Untagged
  m_Icon: {fileID: 0}
  m_NavMeshLayer: 0
  m_StaticEditorFlags: 0
  m_IsActive: 1
--- !u!4 &6758375204791116823
Transform:
  m_ObjectHideFlags: 0
  m_CorrespondingSourceObject: {fileID: 0}
  m_PrefabInstance: {fileID: 0}
  m_PrefabAsset: {fileID: 0}
  m_GameObject: {fileID: 6758375204791416951}
  m_LocalRotation: {x: 0.00019586303, y: -0.000060986386, z: 0.000000040230113, w: 1}
  m_LocalPosition: {x: -0.24035883, y: 0.123310715, z: 0.09902587}
  m_LocalScale: {x: 1, y: 1, z: 1}
  m_Children: []
  m_Father: {fileID: 6758375204791116859}
  m_RootOrder: 6
  m_LocalEulerAnglesHint: {x: 0, y: 0, z: 0}
--- !u!1 &6758375204791416953
GameObject:
  m_ObjectHideFlags: 0
  m_CorrespondingSourceObject: {fileID: 0}
  m_PrefabInstance: {fileID: 0}
  m_PrefabAsset: {fileID: 0}
  serializedVersion: 6
  m_Component:
  - component: {fileID: 6758375204791116825}
  m_Layer: 0
  m_Name: LeftShoulder
  m_TagString: Untagged
  m_Icon: {fileID: 0}
  m_NavMeshLayer: 0
  m_StaticEditorFlags: 0
  m_IsActive: 1
--- !u!4 &6758375204791116825
Transform:
  m_ObjectHideFlags: 0
  m_CorrespondingSourceObject: {fileID: 0}
  m_PrefabInstance: {fileID: 0}
  m_PrefabAsset: {fileID: 0}
  m_GameObject: {fileID: 6758375204791416953}
  m_LocalRotation: {x: 0, y: 0, z: 0.38268343, w: 0.92387956}
  m_LocalPosition: {x: -0.15408985, y: -0.045143012, z: -0.003160109}
  m_LocalScale: {x: 1, y: 1, z: 1}
  m_Children:
  - {fileID: 6758375204791116849}
  m_Father: {fileID: 6758375204791116925}
  m_RootOrder: 0
  m_LocalEulerAnglesHint: {x: 0, y: 0, z: 45}
--- !u!1 &6758375204791416955
GameObject:
  m_ObjectHideFlags: 0
  m_CorrespondingSourceObject: {fileID: 0}
  m_PrefabInstance: {fileID: 0}
  m_PrefabAsset: {fileID: 0}
  serializedVersion: 6
  m_Component:
  - component: {fileID: 6758375204791116827}
  m_Layer: 0
  m_Name: LeftLeg
  m_TagString: Untagged
  m_Icon: {fileID: 0}
  m_NavMeshLayer: 0
  m_StaticEditorFlags: 0
  m_IsActive: 1
--- !u!4 &6758375204791116827
Transform:
  m_ObjectHideFlags: 0
  m_CorrespondingSourceObject: {fileID: 0}
  m_PrefabInstance: {fileID: 0}
  m_PrefabAsset: {fileID: 0}
  m_GameObject: {fileID: 6758375204791416955}
  m_LocalRotation: {x: -0.00000026867107, y: 0.0000000074505775, z: 1, w: -0.000000005989007}
  m_LocalPosition: {x: 0.021578202, y: -0.06640858, z: 0.0061707473}
  m_LocalScale: {x: 1, y: 1, z: 1}
  m_Children:
  - {fileID: 6758375204791116855}
  m_Father: {fileID: 6758375204791116863}
  m_RootOrder: 0
  m_LocalEulerAnglesHint: {x: 0, y: 0, z: 0}
--- !u!1 &6758375204791416957
GameObject:
  m_ObjectHideFlags: 0
  m_CorrespondingSourceObject: {fileID: 0}
  m_PrefabInstance: {fileID: 0}
  m_PrefabAsset: {fileID: 0}
  serializedVersion: 6
  m_Component:
  - component: {fileID: 6758375204791116829}
  m_Layer: 0
  m_Name: Neck
  m_TagString: Untagged
  m_Icon: {fileID: 0}
  m_NavMeshLayer: 0
  m_StaticEditorFlags: 0
  m_IsActive: 1
--- !u!4 &6758375204791116829
Transform:
  m_ObjectHideFlags: 0
  m_CorrespondingSourceObject: {fileID: 0}
  m_PrefabInstance: {fileID: 0}
  m_PrefabAsset: {fileID: 0}
  m_GameObject: {fileID: 6758375204791416957}
  m_LocalRotation: {x: 0, y: -0, z: -0, w: 1}
  m_LocalPosition: {x: -0.24784395, y: 5.5094818e-17, z: 0}
  m_LocalScale: {x: 1, y: 1, z: 1}
  m_Children:
  - {fileID: 6758375204791116859}
  m_Father: {fileID: 6758375204791116925}
  m_RootOrder: 1
  m_LocalEulerAnglesHint: {x: 0, y: 0, z: 0}
--- !u!1 &6758375204791416959
GameObject:
  m_ObjectHideFlags: 0
  m_CorrespondingSourceObject: {fileID: 0}
  m_PrefabInstance: {fileID: 0}
  m_PrefabAsset: {fileID: 0}
  serializedVersion: 6
  m_Component:
  - component: {fileID: 6758375204791116831}
  m_Layer: 0
  m_Name: Mouth
  m_TagString: Untagged
  m_Icon: {fileID: 0}
  m_NavMeshLayer: 0
  m_StaticEditorFlags: 0
  m_IsActive: 1
--- !u!4 &6758375204791116831
Transform:
  m_ObjectHideFlags: 0
  m_CorrespondingSourceObject: {fileID: 0}
  m_PrefabInstance: {fileID: 0}
  m_PrefabAsset: {fileID: 0}
  m_GameObject: {fileID: 6758375204791416959}
  m_LocalRotation: {x: -0, y: -0.7071068, z: 0, w: 0.7071068}
  m_LocalPosition: {x: -0.15692036, y: 1.1215162e-12, z: 0.21675228}
  m_LocalScale: {x: 1, y: 1, z: 1}
  m_Children: []
  m_Father: {fileID: 6758375204791116859}
  m_RootOrder: 5
  m_LocalEulerAnglesHint: {x: 0, y: 0, z: 0}
--- !u!1001 &5447495984176591048
PrefabInstance:
  m_ObjectHideFlags: 0
  serializedVersion: 2
  m_Modification:
    m_TransformParent: {fileID: 6758375204791116851}
    m_Modifications:
    - target: {fileID: 8875863489169544259, guid: 2d5c0b61a6cbe9d47981b239ca0e27cf,
        type: 3}
      propertyPath: m_Name
      value: Crown
      objectReference: {fileID: 0}
    - target: {fileID: 8875863489169544260, guid: 2d5c0b61a6cbe9d47981b239ca0e27cf,
        type: 3}
      propertyPath: m_Mesh
      value: 
      objectReference: {fileID: 0}
    - target: {fileID: 8875863489169544261, guid: 2d5c0b61a6cbe9d47981b239ca0e27cf,
        type: 3}
      propertyPath: m_Mesh
      value: 
      objectReference: {fileID: 0}
    - target: {fileID: 8875863489169544263, guid: 2d5c0b61a6cbe9d47981b239ca0e27cf,
        type: 3}
      propertyPath: m_Mesh
      value: 
      objectReference: {fileID: 0}
    - target: {fileID: 8875863489169544263, guid: 2d5c0b61a6cbe9d47981b239ca0e27cf,
        type: 3}
      propertyPath: m_Tangents.Array.data[132].x
      value: NaN
      objectReference: {fileID: 0}
    - target: {fileID: 8875863489169544263, guid: 2d5c0b61a6cbe9d47981b239ca0e27cf,
        type: 3}
      propertyPath: m_Tangents.Array.data[132].y
      value: NaN
      objectReference: {fileID: 0}
    - target: {fileID: 8875863489169544263, guid: 2d5c0b61a6cbe9d47981b239ca0e27cf,
        type: 3}
      propertyPath: m_Tangents.Array.data[132].z
      value: NaN
      objectReference: {fileID: 0}
    - target: {fileID: 8875863489169544263, guid: 2d5c0b61a6cbe9d47981b239ca0e27cf,
        type: 3}
      propertyPath: m_Tangents.Array.data[133].x
      value: NaN
      objectReference: {fileID: 0}
    - target: {fileID: 8875863489169544263, guid: 2d5c0b61a6cbe9d47981b239ca0e27cf,
        type: 3}
      propertyPath: m_Tangents.Array.data[133].y
      value: NaN
      objectReference: {fileID: 0}
    - target: {fileID: 8875863489169544263, guid: 2d5c0b61a6cbe9d47981b239ca0e27cf,
        type: 3}
      propertyPath: m_Tangents.Array.data[133].z
      value: NaN
      objectReference: {fileID: 0}
    - target: {fileID: 8875863489169544263, guid: 2d5c0b61a6cbe9d47981b239ca0e27cf,
        type: 3}
      propertyPath: m_Tangents.Array.data[134].x
      value: NaN
      objectReference: {fileID: 0}
    - target: {fileID: 8875863489169544263, guid: 2d5c0b61a6cbe9d47981b239ca0e27cf,
        type: 3}
      propertyPath: m_Tangents.Array.data[134].y
      value: NaN
      objectReference: {fileID: 0}
    - target: {fileID: 8875863489169544263, guid: 2d5c0b61a6cbe9d47981b239ca0e27cf,
        type: 3}
      propertyPath: m_Tangents.Array.data[134].z
      value: NaN
      objectReference: {fileID: 0}
    - target: {fileID: 8875863489169544263, guid: 2d5c0b61a6cbe9d47981b239ca0e27cf,
        type: 3}
      propertyPath: m_Tangents.Array.data[135].x
      value: NaN
      objectReference: {fileID: 0}
    - target: {fileID: 8875863489169544263, guid: 2d5c0b61a6cbe9d47981b239ca0e27cf,
        type: 3}
      propertyPath: m_Tangents.Array.data[135].y
      value: NaN
      objectReference: {fileID: 0}
    - target: {fileID: 8875863489169544263, guid: 2d5c0b61a6cbe9d47981b239ca0e27cf,
        type: 3}
      propertyPath: m_Tangents.Array.data[135].z
      value: NaN
      objectReference: {fileID: 0}
    - target: {fileID: 8875863489169544263, guid: 2d5c0b61a6cbe9d47981b239ca0e27cf,
        type: 3}
      propertyPath: m_Tangents.Array.data[136].x
      value: NaN
      objectReference: {fileID: 0}
    - target: {fileID: 8875863489169544263, guid: 2d5c0b61a6cbe9d47981b239ca0e27cf,
        type: 3}
      propertyPath: m_Tangents.Array.data[136].y
      value: NaN
      objectReference: {fileID: 0}
    - target: {fileID: 8875863489169544263, guid: 2d5c0b61a6cbe9d47981b239ca0e27cf,
        type: 3}
      propertyPath: m_Tangents.Array.data[136].z
      value: NaN
      objectReference: {fileID: 0}
    - target: {fileID: 8875863489169544263, guid: 2d5c0b61a6cbe9d47981b239ca0e27cf,
        type: 3}
      propertyPath: m_Tangents.Array.data[137].x
      value: NaN
      objectReference: {fileID: 0}
    - target: {fileID: 8875863489169544263, guid: 2d5c0b61a6cbe9d47981b239ca0e27cf,
        type: 3}
      propertyPath: m_Tangents.Array.data[137].y
      value: NaN
      objectReference: {fileID: 0}
    - target: {fileID: 8875863489169544263, guid: 2d5c0b61a6cbe9d47981b239ca0e27cf,
        type: 3}
      propertyPath: m_Tangents.Array.data[137].z
      value: NaN
      objectReference: {fileID: 0}
    - target: {fileID: 8875863489169544263, guid: 2d5c0b61a6cbe9d47981b239ca0e27cf,
        type: 3}
      propertyPath: m_Tangents.Array.data[138].x
      value: NaN
      objectReference: {fileID: 0}
    - target: {fileID: 8875863489169544263, guid: 2d5c0b61a6cbe9d47981b239ca0e27cf,
        type: 3}
      propertyPath: m_Tangents.Array.data[138].y
      value: NaN
      objectReference: {fileID: 0}
    - target: {fileID: 8875863489169544263, guid: 2d5c0b61a6cbe9d47981b239ca0e27cf,
        type: 3}
      propertyPath: m_Tangents.Array.data[138].z
      value: NaN
      objectReference: {fileID: 0}
    - target: {fileID: 8875863489169544263, guid: 2d5c0b61a6cbe9d47981b239ca0e27cf,
        type: 3}
      propertyPath: m_Tangents.Array.data[139].x
      value: NaN
      objectReference: {fileID: 0}
    - target: {fileID: 8875863489169544263, guid: 2d5c0b61a6cbe9d47981b239ca0e27cf,
        type: 3}
      propertyPath: m_Tangents.Array.data[139].y
      value: NaN
      objectReference: {fileID: 0}
    - target: {fileID: 8875863489169544263, guid: 2d5c0b61a6cbe9d47981b239ca0e27cf,
        type: 3}
      propertyPath: m_Tangents.Array.data[139].z
      value: NaN
      objectReference: {fileID: 0}
    - target: {fileID: 8875863489169544263, guid: 2d5c0b61a6cbe9d47981b239ca0e27cf,
        type: 3}
      propertyPath: m_Tangents.Array.data[148].x
      value: NaN
      objectReference: {fileID: 0}
    - target: {fileID: 8875863489169544263, guid: 2d5c0b61a6cbe9d47981b239ca0e27cf,
        type: 3}
      propertyPath: m_Tangents.Array.data[148].y
      value: NaN
      objectReference: {fileID: 0}
    - target: {fileID: 8875863489169544263, guid: 2d5c0b61a6cbe9d47981b239ca0e27cf,
        type: 3}
      propertyPath: m_Tangents.Array.data[148].z
      value: NaN
      objectReference: {fileID: 0}
    - target: {fileID: 8875863489169544263, guid: 2d5c0b61a6cbe9d47981b239ca0e27cf,
        type: 3}
      propertyPath: m_Tangents.Array.data[149].x
      value: NaN
      objectReference: {fileID: 0}
    - target: {fileID: 8875863489169544263, guid: 2d5c0b61a6cbe9d47981b239ca0e27cf,
        type: 3}
      propertyPath: m_Tangents.Array.data[149].y
      value: NaN
      objectReference: {fileID: 0}
    - target: {fileID: 8875863489169544263, guid: 2d5c0b61a6cbe9d47981b239ca0e27cf,
        type: 3}
      propertyPath: m_Tangents.Array.data[149].z
      value: NaN
      objectReference: {fileID: 0}
    - target: {fileID: 8875863489169544263, guid: 2d5c0b61a6cbe9d47981b239ca0e27cf,
        type: 3}
      propertyPath: m_Tangents.Array.data[150].x
      value: NaN
      objectReference: {fileID: 0}
    - target: {fileID: 8875863489169544263, guid: 2d5c0b61a6cbe9d47981b239ca0e27cf,
        type: 3}
      propertyPath: m_Tangents.Array.data[150].y
      value: NaN
      objectReference: {fileID: 0}
    - target: {fileID: 8875863489169544263, guid: 2d5c0b61a6cbe9d47981b239ca0e27cf,
        type: 3}
      propertyPath: m_Tangents.Array.data[150].z
      value: NaN
      objectReference: {fileID: 0}
    - target: {fileID: 8875863489169544263, guid: 2d5c0b61a6cbe9d47981b239ca0e27cf,
        type: 3}
      propertyPath: m_Tangents.Array.data[151].x
      value: NaN
      objectReference: {fileID: 0}
    - target: {fileID: 8875863489169544263, guid: 2d5c0b61a6cbe9d47981b239ca0e27cf,
        type: 3}
      propertyPath: m_Tangents.Array.data[151].y
      value: NaN
      objectReference: {fileID: 0}
    - target: {fileID: 8875863489169544263, guid: 2d5c0b61a6cbe9d47981b239ca0e27cf,
        type: 3}
      propertyPath: m_Tangents.Array.data[151].z
      value: NaN
      objectReference: {fileID: 0}
    - target: {fileID: 8875863489169544263, guid: 2d5c0b61a6cbe9d47981b239ca0e27cf,
        type: 3}
      propertyPath: m_Tangents.Array.data[152].x
      value: NaN
      objectReference: {fileID: 0}
    - target: {fileID: 8875863489169544263, guid: 2d5c0b61a6cbe9d47981b239ca0e27cf,
        type: 3}
      propertyPath: m_Tangents.Array.data[152].y
      value: NaN
      objectReference: {fileID: 0}
    - target: {fileID: 8875863489169544263, guid: 2d5c0b61a6cbe9d47981b239ca0e27cf,
        type: 3}
      propertyPath: m_Tangents.Array.data[152].z
      value: NaN
      objectReference: {fileID: 0}
    - target: {fileID: 8875863489169544263, guid: 2d5c0b61a6cbe9d47981b239ca0e27cf,
        type: 3}
      propertyPath: m_Tangents.Array.data[153].x
      value: NaN
      objectReference: {fileID: 0}
    - target: {fileID: 8875863489169544263, guid: 2d5c0b61a6cbe9d47981b239ca0e27cf,
        type: 3}
      propertyPath: m_Tangents.Array.data[153].y
      value: NaN
      objectReference: {fileID: 0}
    - target: {fileID: 8875863489169544263, guid: 2d5c0b61a6cbe9d47981b239ca0e27cf,
        type: 3}
      propertyPath: m_Tangents.Array.data[153].z
      value: NaN
      objectReference: {fileID: 0}
    - target: {fileID: 8875863489169544263, guid: 2d5c0b61a6cbe9d47981b239ca0e27cf,
        type: 3}
      propertyPath: m_Tangents.Array.data[154].x
      value: NaN
      objectReference: {fileID: 0}
    - target: {fileID: 8875863489169544263, guid: 2d5c0b61a6cbe9d47981b239ca0e27cf,
        type: 3}
      propertyPath: m_Tangents.Array.data[154].y
      value: NaN
      objectReference: {fileID: 0}
    - target: {fileID: 8875863489169544263, guid: 2d5c0b61a6cbe9d47981b239ca0e27cf,
        type: 3}
      propertyPath: m_Tangents.Array.data[154].z
      value: NaN
      objectReference: {fileID: 0}
    - target: {fileID: 8875863489169544263, guid: 2d5c0b61a6cbe9d47981b239ca0e27cf,
        type: 3}
      propertyPath: m_Tangents.Array.data[155].x
      value: NaN
      objectReference: {fileID: 0}
    - target: {fileID: 8875863489169544263, guid: 2d5c0b61a6cbe9d47981b239ca0e27cf,
        type: 3}
      propertyPath: m_Tangents.Array.data[155].y
      value: NaN
      objectReference: {fileID: 0}
    - target: {fileID: 8875863489169544263, guid: 2d5c0b61a6cbe9d47981b239ca0e27cf,
        type: 3}
      propertyPath: m_Tangents.Array.data[155].z
      value: NaN
      objectReference: {fileID: 0}
    - target: {fileID: 8875863489169544263, guid: 2d5c0b61a6cbe9d47981b239ca0e27cf,
        type: 3}
      propertyPath: m_Tangents.Array.data[164].x
      value: NaN
      objectReference: {fileID: 0}
    - target: {fileID: 8875863489169544263, guid: 2d5c0b61a6cbe9d47981b239ca0e27cf,
        type: 3}
      propertyPath: m_Tangents.Array.data[164].y
      value: NaN
      objectReference: {fileID: 0}
    - target: {fileID: 8875863489169544263, guid: 2d5c0b61a6cbe9d47981b239ca0e27cf,
        type: 3}
      propertyPath: m_Tangents.Array.data[164].z
      value: NaN
      objectReference: {fileID: 0}
    - target: {fileID: 8875863489169544263, guid: 2d5c0b61a6cbe9d47981b239ca0e27cf,
        type: 3}
      propertyPath: m_Tangents.Array.data[165].x
      value: NaN
      objectReference: {fileID: 0}
    - target: {fileID: 8875863489169544263, guid: 2d5c0b61a6cbe9d47981b239ca0e27cf,
        type: 3}
      propertyPath: m_Tangents.Array.data[165].y
      value: NaN
      objectReference: {fileID: 0}
    - target: {fileID: 8875863489169544263, guid: 2d5c0b61a6cbe9d47981b239ca0e27cf,
        type: 3}
      propertyPath: m_Tangents.Array.data[165].z
      value: NaN
      objectReference: {fileID: 0}
    - target: {fileID: 8875863489169544263, guid: 2d5c0b61a6cbe9d47981b239ca0e27cf,
        type: 3}
      propertyPath: m_Tangents.Array.data[166].x
      value: NaN
      objectReference: {fileID: 0}
    - target: {fileID: 8875863489169544263, guid: 2d5c0b61a6cbe9d47981b239ca0e27cf,
        type: 3}
      propertyPath: m_Tangents.Array.data[166].y
      value: NaN
      objectReference: {fileID: 0}
    - target: {fileID: 8875863489169544263, guid: 2d5c0b61a6cbe9d47981b239ca0e27cf,
        type: 3}
      propertyPath: m_Tangents.Array.data[166].z
      value: NaN
      objectReference: {fileID: 0}
    - target: {fileID: 8875863489169544263, guid: 2d5c0b61a6cbe9d47981b239ca0e27cf,
        type: 3}
      propertyPath: m_Tangents.Array.data[167].x
      value: NaN
      objectReference: {fileID: 0}
    - target: {fileID: 8875863489169544263, guid: 2d5c0b61a6cbe9d47981b239ca0e27cf,
        type: 3}
      propertyPath: m_Tangents.Array.data[167].y
      value: NaN
      objectReference: {fileID: 0}
    - target: {fileID: 8875863489169544263, guid: 2d5c0b61a6cbe9d47981b239ca0e27cf,
        type: 3}
      propertyPath: m_Tangents.Array.data[167].z
      value: NaN
      objectReference: {fileID: 0}
    - target: {fileID: 8875863489169544263, guid: 2d5c0b61a6cbe9d47981b239ca0e27cf,
        type: 3}
      propertyPath: m_Tangents.Array.data[168].x
      value: NaN
      objectReference: {fileID: 0}
    - target: {fileID: 8875863489169544263, guid: 2d5c0b61a6cbe9d47981b239ca0e27cf,
        type: 3}
      propertyPath: m_Tangents.Array.data[168].y
      value: NaN
      objectReference: {fileID: 0}
    - target: {fileID: 8875863489169544263, guid: 2d5c0b61a6cbe9d47981b239ca0e27cf,
        type: 3}
      propertyPath: m_Tangents.Array.data[168].z
      value: NaN
      objectReference: {fileID: 0}
    - target: {fileID: 8875863489169544263, guid: 2d5c0b61a6cbe9d47981b239ca0e27cf,
        type: 3}
      propertyPath: m_Tangents.Array.data[169].x
      value: NaN
      objectReference: {fileID: 0}
    - target: {fileID: 8875863489169544263, guid: 2d5c0b61a6cbe9d47981b239ca0e27cf,
        type: 3}
      propertyPath: m_Tangents.Array.data[169].y
      value: NaN
      objectReference: {fileID: 0}
    - target: {fileID: 8875863489169544263, guid: 2d5c0b61a6cbe9d47981b239ca0e27cf,
        type: 3}
      propertyPath: m_Tangents.Array.data[169].z
      value: NaN
      objectReference: {fileID: 0}
    - target: {fileID: 8875863489169544263, guid: 2d5c0b61a6cbe9d47981b239ca0e27cf,
        type: 3}
      propertyPath: m_Tangents.Array.data[170].x
      value: NaN
      objectReference: {fileID: 0}
    - target: {fileID: 8875863489169544263, guid: 2d5c0b61a6cbe9d47981b239ca0e27cf,
        type: 3}
      propertyPath: m_Tangents.Array.data[170].y
      value: NaN
      objectReference: {fileID: 0}
    - target: {fileID: 8875863489169544263, guid: 2d5c0b61a6cbe9d47981b239ca0e27cf,
        type: 3}
      propertyPath: m_Tangents.Array.data[170].z
      value: NaN
      objectReference: {fileID: 0}
    - target: {fileID: 8875863489169544263, guid: 2d5c0b61a6cbe9d47981b239ca0e27cf,
        type: 3}
      propertyPath: m_Tangents.Array.data[171].x
      value: NaN
      objectReference: {fileID: 0}
    - target: {fileID: 8875863489169544263, guid: 2d5c0b61a6cbe9d47981b239ca0e27cf,
        type: 3}
      propertyPath: m_Tangents.Array.data[171].y
      value: NaN
      objectReference: {fileID: 0}
    - target: {fileID: 8875863489169544263, guid: 2d5c0b61a6cbe9d47981b239ca0e27cf,
        type: 3}
      propertyPath: m_Tangents.Array.data[171].z
      value: NaN
      objectReference: {fileID: 0}
    - target: {fileID: 8875863489169544263, guid: 2d5c0b61a6cbe9d47981b239ca0e27cf,
        type: 3}
      propertyPath: m_Tangents.Array.data[180].x
      value: NaN
      objectReference: {fileID: 0}
    - target: {fileID: 8875863489169544263, guid: 2d5c0b61a6cbe9d47981b239ca0e27cf,
        type: 3}
      propertyPath: m_Tangents.Array.data[180].y
      value: NaN
      objectReference: {fileID: 0}
    - target: {fileID: 8875863489169544263, guid: 2d5c0b61a6cbe9d47981b239ca0e27cf,
        type: 3}
      propertyPath: m_Tangents.Array.data[180].z
      value: NaN
      objectReference: {fileID: 0}
    - target: {fileID: 8875863489169544263, guid: 2d5c0b61a6cbe9d47981b239ca0e27cf,
        type: 3}
      propertyPath: m_Tangents.Array.data[181].x
      value: NaN
      objectReference: {fileID: 0}
    - target: {fileID: 8875863489169544263, guid: 2d5c0b61a6cbe9d47981b239ca0e27cf,
        type: 3}
      propertyPath: m_Tangents.Array.data[181].y
      value: NaN
      objectReference: {fileID: 0}
    - target: {fileID: 8875863489169544263, guid: 2d5c0b61a6cbe9d47981b239ca0e27cf,
        type: 3}
      propertyPath: m_Tangents.Array.data[181].z
      value: NaN
      objectReference: {fileID: 0}
    - target: {fileID: 8875863489169544263, guid: 2d5c0b61a6cbe9d47981b239ca0e27cf,
        type: 3}
      propertyPath: m_Tangents.Array.data[182].x
      value: NaN
      objectReference: {fileID: 0}
    - target: {fileID: 8875863489169544263, guid: 2d5c0b61a6cbe9d47981b239ca0e27cf,
        type: 3}
      propertyPath: m_Tangents.Array.data[182].y
      value: NaN
      objectReference: {fileID: 0}
    - target: {fileID: 8875863489169544263, guid: 2d5c0b61a6cbe9d47981b239ca0e27cf,
        type: 3}
      propertyPath: m_Tangents.Array.data[182].z
      value: NaN
      objectReference: {fileID: 0}
    - target: {fileID: 8875863489169544263, guid: 2d5c0b61a6cbe9d47981b239ca0e27cf,
        type: 3}
      propertyPath: m_Tangents.Array.data[183].x
      value: NaN
      objectReference: {fileID: 0}
    - target: {fileID: 8875863489169544263, guid: 2d5c0b61a6cbe9d47981b239ca0e27cf,
        type: 3}
      propertyPath: m_Tangents.Array.data[183].y
      value: NaN
      objectReference: {fileID: 0}
    - target: {fileID: 8875863489169544263, guid: 2d5c0b61a6cbe9d47981b239ca0e27cf,
        type: 3}
      propertyPath: m_Tangents.Array.data[183].z
      value: NaN
      objectReference: {fileID: 0}
    - target: {fileID: 8875863489169544263, guid: 2d5c0b61a6cbe9d47981b239ca0e27cf,
        type: 3}
      propertyPath: m_Tangents.Array.data[184].x
      value: NaN
      objectReference: {fileID: 0}
    - target: {fileID: 8875863489169544263, guid: 2d5c0b61a6cbe9d47981b239ca0e27cf,
        type: 3}
      propertyPath: m_Tangents.Array.data[184].y
      value: NaN
      objectReference: {fileID: 0}
    - target: {fileID: 8875863489169544263, guid: 2d5c0b61a6cbe9d47981b239ca0e27cf,
        type: 3}
      propertyPath: m_Tangents.Array.data[184].z
      value: NaN
      objectReference: {fileID: 0}
    - target: {fileID: 8875863489169544263, guid: 2d5c0b61a6cbe9d47981b239ca0e27cf,
        type: 3}
      propertyPath: m_Tangents.Array.data[185].x
      value: NaN
      objectReference: {fileID: 0}
    - target: {fileID: 8875863489169544263, guid: 2d5c0b61a6cbe9d47981b239ca0e27cf,
        type: 3}
      propertyPath: m_Tangents.Array.data[185].y
      value: NaN
      objectReference: {fileID: 0}
    - target: {fileID: 8875863489169544263, guid: 2d5c0b61a6cbe9d47981b239ca0e27cf,
        type: 3}
      propertyPath: m_Tangents.Array.data[185].z
      value: NaN
      objectReference: {fileID: 0}
    - target: {fileID: 8875863489169544263, guid: 2d5c0b61a6cbe9d47981b239ca0e27cf,
        type: 3}
      propertyPath: m_Tangents.Array.data[186].x
      value: NaN
      objectReference: {fileID: 0}
    - target: {fileID: 8875863489169544263, guid: 2d5c0b61a6cbe9d47981b239ca0e27cf,
        type: 3}
      propertyPath: m_Tangents.Array.data[186].y
      value: NaN
      objectReference: {fileID: 0}
    - target: {fileID: 8875863489169544263, guid: 2d5c0b61a6cbe9d47981b239ca0e27cf,
        type: 3}
      propertyPath: m_Tangents.Array.data[186].z
      value: NaN
      objectReference: {fileID: 0}
    - target: {fileID: 8875863489169544263, guid: 2d5c0b61a6cbe9d47981b239ca0e27cf,
        type: 3}
      propertyPath: m_Tangents.Array.data[187].x
      value: NaN
      objectReference: {fileID: 0}
    - target: {fileID: 8875863489169544263, guid: 2d5c0b61a6cbe9d47981b239ca0e27cf,
        type: 3}
      propertyPath: m_Tangents.Array.data[187].y
      value: NaN
      objectReference: {fileID: 0}
    - target: {fileID: 8875863489169544263, guid: 2d5c0b61a6cbe9d47981b239ca0e27cf,
        type: 3}
      propertyPath: m_Tangents.Array.data[187].z
      value: NaN
      objectReference: {fileID: 0}
    - target: {fileID: 8875863489169544263, guid: 2d5c0b61a6cbe9d47981b239ca0e27cf,
        type: 3}
      propertyPath: m_Tangents.Array.data[196].x
      value: NaN
      objectReference: {fileID: 0}
    - target: {fileID: 8875863489169544263, guid: 2d5c0b61a6cbe9d47981b239ca0e27cf,
        type: 3}
      propertyPath: m_Tangents.Array.data[196].y
      value: NaN
      objectReference: {fileID: 0}
    - target: {fileID: 8875863489169544263, guid: 2d5c0b61a6cbe9d47981b239ca0e27cf,
        type: 3}
      propertyPath: m_Tangents.Array.data[196].z
      value: NaN
      objectReference: {fileID: 0}
    - target: {fileID: 8875863489169544263, guid: 2d5c0b61a6cbe9d47981b239ca0e27cf,
        type: 3}
      propertyPath: m_Tangents.Array.data[197].x
      value: NaN
      objectReference: {fileID: 0}
    - target: {fileID: 8875863489169544263, guid: 2d5c0b61a6cbe9d47981b239ca0e27cf,
        type: 3}
      propertyPath: m_Tangents.Array.data[197].y
      value: NaN
      objectReference: {fileID: 0}
    - target: {fileID: 8875863489169544263, guid: 2d5c0b61a6cbe9d47981b239ca0e27cf,
        type: 3}
      propertyPath: m_Tangents.Array.data[197].z
      value: NaN
      objectReference: {fileID: 0}
    - target: {fileID: 8875863489169544263, guid: 2d5c0b61a6cbe9d47981b239ca0e27cf,
        type: 3}
      propertyPath: m_Tangents.Array.data[198].x
      value: NaN
      objectReference: {fileID: 0}
    - target: {fileID: 8875863489169544263, guid: 2d5c0b61a6cbe9d47981b239ca0e27cf,
        type: 3}
      propertyPath: m_Tangents.Array.data[198].y
      value: NaN
      objectReference: {fileID: 0}
    - target: {fileID: 8875863489169544263, guid: 2d5c0b61a6cbe9d47981b239ca0e27cf,
        type: 3}
      propertyPath: m_Tangents.Array.data[198].z
      value: NaN
      objectReference: {fileID: 0}
    - target: {fileID: 8875863489169544263, guid: 2d5c0b61a6cbe9d47981b239ca0e27cf,
        type: 3}
      propertyPath: m_Tangents.Array.data[199].x
      value: NaN
      objectReference: {fileID: 0}
    - target: {fileID: 8875863489169544263, guid: 2d5c0b61a6cbe9d47981b239ca0e27cf,
        type: 3}
      propertyPath: m_Tangents.Array.data[199].y
      value: NaN
      objectReference: {fileID: 0}
    - target: {fileID: 8875863489169544263, guid: 2d5c0b61a6cbe9d47981b239ca0e27cf,
        type: 3}
      propertyPath: m_Tangents.Array.data[199].z
      value: NaN
      objectReference: {fileID: 0}
    - target: {fileID: 8875863489169544263, guid: 2d5c0b61a6cbe9d47981b239ca0e27cf,
        type: 3}
      propertyPath: m_Tangents.Array.data[200].x
      value: NaN
      objectReference: {fileID: 0}
    - target: {fileID: 8875863489169544263, guid: 2d5c0b61a6cbe9d47981b239ca0e27cf,
        type: 3}
      propertyPath: m_Tangents.Array.data[200].y
      value: NaN
      objectReference: {fileID: 0}
    - target: {fileID: 8875863489169544263, guid: 2d5c0b61a6cbe9d47981b239ca0e27cf,
        type: 3}
      propertyPath: m_Tangents.Array.data[200].z
      value: NaN
      objectReference: {fileID: 0}
    - target: {fileID: 8875863489169544263, guid: 2d5c0b61a6cbe9d47981b239ca0e27cf,
        type: 3}
      propertyPath: m_Tangents.Array.data[201].x
      value: NaN
      objectReference: {fileID: 0}
    - target: {fileID: 8875863489169544263, guid: 2d5c0b61a6cbe9d47981b239ca0e27cf,
        type: 3}
      propertyPath: m_Tangents.Array.data[201].y
      value: NaN
      objectReference: {fileID: 0}
    - target: {fileID: 8875863489169544263, guid: 2d5c0b61a6cbe9d47981b239ca0e27cf,
        type: 3}
      propertyPath: m_Tangents.Array.data[201].z
      value: NaN
      objectReference: {fileID: 0}
    - target: {fileID: 8875863489169544263, guid: 2d5c0b61a6cbe9d47981b239ca0e27cf,
        type: 3}
      propertyPath: m_Tangents.Array.data[202].x
      value: NaN
      objectReference: {fileID: 0}
    - target: {fileID: 8875863489169544263, guid: 2d5c0b61a6cbe9d47981b239ca0e27cf,
        type: 3}
      propertyPath: m_Tangents.Array.data[202].y
      value: NaN
      objectReference: {fileID: 0}
    - target: {fileID: 8875863489169544263, guid: 2d5c0b61a6cbe9d47981b239ca0e27cf,
        type: 3}
      propertyPath: m_Tangents.Array.data[202].z
      value: NaN
      objectReference: {fileID: 0}
    - target: {fileID: 8875863489169544263, guid: 2d5c0b61a6cbe9d47981b239ca0e27cf,
        type: 3}
      propertyPath: m_Tangents.Array.data[203].x
      value: NaN
      objectReference: {fileID: 0}
    - target: {fileID: 8875863489169544263, guid: 2d5c0b61a6cbe9d47981b239ca0e27cf,
        type: 3}
      propertyPath: m_Tangents.Array.data[203].y
      value: NaN
      objectReference: {fileID: 0}
    - target: {fileID: 8875863489169544263, guid: 2d5c0b61a6cbe9d47981b239ca0e27cf,
        type: 3}
      propertyPath: m_Tangents.Array.data[203].z
      value: NaN
      objectReference: {fileID: 0}
    - target: {fileID: 8875863489169544263, guid: 2d5c0b61a6cbe9d47981b239ca0e27cf,
        type: 3}
      propertyPath: m_Tangents.Array.data[212].x
      value: NaN
      objectReference: {fileID: 0}
    - target: {fileID: 8875863489169544263, guid: 2d5c0b61a6cbe9d47981b239ca0e27cf,
        type: 3}
      propertyPath: m_Tangents.Array.data[212].y
      value: NaN
      objectReference: {fileID: 0}
    - target: {fileID: 8875863489169544263, guid: 2d5c0b61a6cbe9d47981b239ca0e27cf,
        type: 3}
      propertyPath: m_Tangents.Array.data[212].z
      value: NaN
      objectReference: {fileID: 0}
    - target: {fileID: 8875863489169544263, guid: 2d5c0b61a6cbe9d47981b239ca0e27cf,
        type: 3}
      propertyPath: m_Tangents.Array.data[213].x
      value: NaN
      objectReference: {fileID: 0}
    - target: {fileID: 8875863489169544263, guid: 2d5c0b61a6cbe9d47981b239ca0e27cf,
        type: 3}
      propertyPath: m_Tangents.Array.data[213].y
      value: NaN
      objectReference: {fileID: 0}
    - target: {fileID: 8875863489169544263, guid: 2d5c0b61a6cbe9d47981b239ca0e27cf,
        type: 3}
      propertyPath: m_Tangents.Array.data[213].z
      value: NaN
      objectReference: {fileID: 0}
    - target: {fileID: 8875863489169544263, guid: 2d5c0b61a6cbe9d47981b239ca0e27cf,
        type: 3}
      propertyPath: m_Tangents.Array.data[214].x
      value: NaN
      objectReference: {fileID: 0}
    - target: {fileID: 8875863489169544263, guid: 2d5c0b61a6cbe9d47981b239ca0e27cf,
        type: 3}
      propertyPath: m_Tangents.Array.data[214].y
      value: NaN
      objectReference: {fileID: 0}
    - target: {fileID: 8875863489169544263, guid: 2d5c0b61a6cbe9d47981b239ca0e27cf,
        type: 3}
      propertyPath: m_Tangents.Array.data[214].z
      value: NaN
      objectReference: {fileID: 0}
    - target: {fileID: 8875863489169544263, guid: 2d5c0b61a6cbe9d47981b239ca0e27cf,
        type: 3}
      propertyPath: m_Tangents.Array.data[215].x
      value: NaN
      objectReference: {fileID: 0}
    - target: {fileID: 8875863489169544263, guid: 2d5c0b61a6cbe9d47981b239ca0e27cf,
        type: 3}
      propertyPath: m_Tangents.Array.data[215].y
      value: NaN
      objectReference: {fileID: 0}
    - target: {fileID: 8875863489169544263, guid: 2d5c0b61a6cbe9d47981b239ca0e27cf,
        type: 3}
      propertyPath: m_Tangents.Array.data[215].z
      value: NaN
      objectReference: {fileID: 0}
    - target: {fileID: 8875863489169544263, guid: 2d5c0b61a6cbe9d47981b239ca0e27cf,
        type: 3}
      propertyPath: m_Tangents.Array.data[216].x
      value: NaN
      objectReference: {fileID: 0}
    - target: {fileID: 8875863489169544263, guid: 2d5c0b61a6cbe9d47981b239ca0e27cf,
        type: 3}
      propertyPath: m_Tangents.Array.data[216].y
      value: NaN
      objectReference: {fileID: 0}
    - target: {fileID: 8875863489169544263, guid: 2d5c0b61a6cbe9d47981b239ca0e27cf,
        type: 3}
      propertyPath: m_Tangents.Array.data[216].z
      value: NaN
      objectReference: {fileID: 0}
    - target: {fileID: 8875863489169544263, guid: 2d5c0b61a6cbe9d47981b239ca0e27cf,
        type: 3}
      propertyPath: m_Tangents.Array.data[217].x
      value: NaN
      objectReference: {fileID: 0}
    - target: {fileID: 8875863489169544263, guid: 2d5c0b61a6cbe9d47981b239ca0e27cf,
        type: 3}
      propertyPath: m_Tangents.Array.data[217].y
      value: NaN
      objectReference: {fileID: 0}
    - target: {fileID: 8875863489169544263, guid: 2d5c0b61a6cbe9d47981b239ca0e27cf,
        type: 3}
      propertyPath: m_Tangents.Array.data[217].z
      value: NaN
      objectReference: {fileID: 0}
    - target: {fileID: 8875863489169544263, guid: 2d5c0b61a6cbe9d47981b239ca0e27cf,
        type: 3}
      propertyPath: m_Tangents.Array.data[218].x
      value: NaN
      objectReference: {fileID: 0}
    - target: {fileID: 8875863489169544263, guid: 2d5c0b61a6cbe9d47981b239ca0e27cf,
        type: 3}
      propertyPath: m_Tangents.Array.data[218].y
      value: NaN
      objectReference: {fileID: 0}
    - target: {fileID: 8875863489169544263, guid: 2d5c0b61a6cbe9d47981b239ca0e27cf,
        type: 3}
      propertyPath: m_Tangents.Array.data[218].z
      value: NaN
      objectReference: {fileID: 0}
    - target: {fileID: 8875863489169544263, guid: 2d5c0b61a6cbe9d47981b239ca0e27cf,
        type: 3}
      propertyPath: m_Tangents.Array.data[219].x
      value: NaN
      objectReference: {fileID: 0}
    - target: {fileID: 8875863489169544263, guid: 2d5c0b61a6cbe9d47981b239ca0e27cf,
        type: 3}
      propertyPath: m_Tangents.Array.data[219].y
      value: NaN
      objectReference: {fileID: 0}
    - target: {fileID: 8875863489169544263, guid: 2d5c0b61a6cbe9d47981b239ca0e27cf,
        type: 3}
      propertyPath: m_Tangents.Array.data[219].z
      value: NaN
      objectReference: {fileID: 0}
    - target: {fileID: 8875863489169544263, guid: 2d5c0b61a6cbe9d47981b239ca0e27cf,
        type: 3}
      propertyPath: m_Tangents.Array.data[228].x
      value: NaN
      objectReference: {fileID: 0}
    - target: {fileID: 8875863489169544263, guid: 2d5c0b61a6cbe9d47981b239ca0e27cf,
        type: 3}
      propertyPath: m_Tangents.Array.data[228].y
      value: NaN
      objectReference: {fileID: 0}
    - target: {fileID: 8875863489169544263, guid: 2d5c0b61a6cbe9d47981b239ca0e27cf,
        type: 3}
      propertyPath: m_Tangents.Array.data[228].z
      value: NaN
      objectReference: {fileID: 0}
    - target: {fileID: 8875863489169544263, guid: 2d5c0b61a6cbe9d47981b239ca0e27cf,
        type: 3}
      propertyPath: m_Tangents.Array.data[229].x
      value: NaN
      objectReference: {fileID: 0}
    - target: {fileID: 8875863489169544263, guid: 2d5c0b61a6cbe9d47981b239ca0e27cf,
        type: 3}
      propertyPath: m_Tangents.Array.data[229].y
      value: NaN
      objectReference: {fileID: 0}
    - target: {fileID: 8875863489169544263, guid: 2d5c0b61a6cbe9d47981b239ca0e27cf,
        type: 3}
      propertyPath: m_Tangents.Array.data[229].z
      value: NaN
      objectReference: {fileID: 0}
    - target: {fileID: 8875863489169544263, guid: 2d5c0b61a6cbe9d47981b239ca0e27cf,
        type: 3}
      propertyPath: m_Tangents.Array.data[230].x
      value: NaN
      objectReference: {fileID: 0}
    - target: {fileID: 8875863489169544263, guid: 2d5c0b61a6cbe9d47981b239ca0e27cf,
        type: 3}
      propertyPath: m_Tangents.Array.data[230].y
      value: NaN
      objectReference: {fileID: 0}
    - target: {fileID: 8875863489169544263, guid: 2d5c0b61a6cbe9d47981b239ca0e27cf,
        type: 3}
      propertyPath: m_Tangents.Array.data[230].z
      value: NaN
      objectReference: {fileID: 0}
    - target: {fileID: 8875863489169544263, guid: 2d5c0b61a6cbe9d47981b239ca0e27cf,
        type: 3}
      propertyPath: m_Tangents.Array.data[231].x
      value: NaN
      objectReference: {fileID: 0}
    - target: {fileID: 8875863489169544263, guid: 2d5c0b61a6cbe9d47981b239ca0e27cf,
        type: 3}
      propertyPath: m_Tangents.Array.data[231].y
      value: NaN
      objectReference: {fileID: 0}
    - target: {fileID: 8875863489169544263, guid: 2d5c0b61a6cbe9d47981b239ca0e27cf,
        type: 3}
      propertyPath: m_Tangents.Array.data[231].z
      value: NaN
      objectReference: {fileID: 0}
    - target: {fileID: 8875863489169544263, guid: 2d5c0b61a6cbe9d47981b239ca0e27cf,
        type: 3}
      propertyPath: m_Tangents.Array.data[232].x
      value: NaN
      objectReference: {fileID: 0}
    - target: {fileID: 8875863489169544263, guid: 2d5c0b61a6cbe9d47981b239ca0e27cf,
        type: 3}
      propertyPath: m_Tangents.Array.data[232].y
      value: NaN
      objectReference: {fileID: 0}
    - target: {fileID: 8875863489169544263, guid: 2d5c0b61a6cbe9d47981b239ca0e27cf,
        type: 3}
      propertyPath: m_Tangents.Array.data[232].z
      value: NaN
      objectReference: {fileID: 0}
    - target: {fileID: 8875863489169544263, guid: 2d5c0b61a6cbe9d47981b239ca0e27cf,
        type: 3}
      propertyPath: m_Tangents.Array.data[233].x
      value: NaN
      objectReference: {fileID: 0}
    - target: {fileID: 8875863489169544263, guid: 2d5c0b61a6cbe9d47981b239ca0e27cf,
        type: 3}
      propertyPath: m_Tangents.Array.data[233].y
      value: NaN
      objectReference: {fileID: 0}
    - target: {fileID: 8875863489169544263, guid: 2d5c0b61a6cbe9d47981b239ca0e27cf,
        type: 3}
      propertyPath: m_Tangents.Array.data[233].z
      value: NaN
      objectReference: {fileID: 0}
    - target: {fileID: 8875863489169544263, guid: 2d5c0b61a6cbe9d47981b239ca0e27cf,
        type: 3}
      propertyPath: m_Tangents.Array.data[234].x
      value: NaN
      objectReference: {fileID: 0}
    - target: {fileID: 8875863489169544263, guid: 2d5c0b61a6cbe9d47981b239ca0e27cf,
        type: 3}
      propertyPath: m_Tangents.Array.data[234].y
      value: NaN
      objectReference: {fileID: 0}
    - target: {fileID: 8875863489169544263, guid: 2d5c0b61a6cbe9d47981b239ca0e27cf,
        type: 3}
      propertyPath: m_Tangents.Array.data[234].z
      value: NaN
      objectReference: {fileID: 0}
    - target: {fileID: 8875863489169544263, guid: 2d5c0b61a6cbe9d47981b239ca0e27cf,
        type: 3}
      propertyPath: m_Tangents.Array.data[235].x
      value: NaN
      objectReference: {fileID: 0}
    - target: {fileID: 8875863489169544263, guid: 2d5c0b61a6cbe9d47981b239ca0e27cf,
        type: 3}
      propertyPath: m_Tangents.Array.data[235].y
      value: NaN
      objectReference: {fileID: 0}
    - target: {fileID: 8875863489169544263, guid: 2d5c0b61a6cbe9d47981b239ca0e27cf,
        type: 3}
      propertyPath: m_Tangents.Array.data[235].z
      value: NaN
      objectReference: {fileID: 0}
    - target: {fileID: 8875863489169544263, guid: 2d5c0b61a6cbe9d47981b239ca0e27cf,
        type: 3}
      propertyPath: m_Tangents.Array.data[244].x
      value: NaN
      objectReference: {fileID: 0}
    - target: {fileID: 8875863489169544263, guid: 2d5c0b61a6cbe9d47981b239ca0e27cf,
        type: 3}
      propertyPath: m_Tangents.Array.data[244].y
      value: NaN
      objectReference: {fileID: 0}
    - target: {fileID: 8875863489169544263, guid: 2d5c0b61a6cbe9d47981b239ca0e27cf,
        type: 3}
      propertyPath: m_Tangents.Array.data[244].z
      value: NaN
      objectReference: {fileID: 0}
    - target: {fileID: 8875863489169544263, guid: 2d5c0b61a6cbe9d47981b239ca0e27cf,
        type: 3}
      propertyPath: m_Tangents.Array.data[245].x
      value: NaN
      objectReference: {fileID: 0}
    - target: {fileID: 8875863489169544263, guid: 2d5c0b61a6cbe9d47981b239ca0e27cf,
        type: 3}
      propertyPath: m_Tangents.Array.data[245].y
      value: NaN
      objectReference: {fileID: 0}
    - target: {fileID: 8875863489169544263, guid: 2d5c0b61a6cbe9d47981b239ca0e27cf,
        type: 3}
      propertyPath: m_Tangents.Array.data[245].z
      value: NaN
      objectReference: {fileID: 0}
    - target: {fileID: 8875863489169544263, guid: 2d5c0b61a6cbe9d47981b239ca0e27cf,
        type: 3}
      propertyPath: m_Tangents.Array.data[246].x
      value: NaN
      objectReference: {fileID: 0}
    - target: {fileID: 8875863489169544263, guid: 2d5c0b61a6cbe9d47981b239ca0e27cf,
        type: 3}
      propertyPath: m_Tangents.Array.data[246].y
      value: NaN
      objectReference: {fileID: 0}
    - target: {fileID: 8875863489169544263, guid: 2d5c0b61a6cbe9d47981b239ca0e27cf,
        type: 3}
      propertyPath: m_Tangents.Array.data[246].z
      value: NaN
      objectReference: {fileID: 0}
    - target: {fileID: 8875863489169544263, guid: 2d5c0b61a6cbe9d47981b239ca0e27cf,
        type: 3}
      propertyPath: m_Tangents.Array.data[247].x
      value: NaN
      objectReference: {fileID: 0}
    - target: {fileID: 8875863489169544263, guid: 2d5c0b61a6cbe9d47981b239ca0e27cf,
        type: 3}
      propertyPath: m_Tangents.Array.data[247].y
      value: NaN
      objectReference: {fileID: 0}
    - target: {fileID: 8875863489169544263, guid: 2d5c0b61a6cbe9d47981b239ca0e27cf,
        type: 3}
      propertyPath: m_Tangents.Array.data[247].z
      value: NaN
      objectReference: {fileID: 0}
    - target: {fileID: 8875863489169544263, guid: 2d5c0b61a6cbe9d47981b239ca0e27cf,
        type: 3}
      propertyPath: m_Tangents.Array.data[248].x
      value: NaN
      objectReference: {fileID: 0}
    - target: {fileID: 8875863489169544263, guid: 2d5c0b61a6cbe9d47981b239ca0e27cf,
        type: 3}
      propertyPath: m_Tangents.Array.data[248].y
      value: NaN
      objectReference: {fileID: 0}
    - target: {fileID: 8875863489169544263, guid: 2d5c0b61a6cbe9d47981b239ca0e27cf,
        type: 3}
      propertyPath: m_Tangents.Array.data[248].z
      value: NaN
      objectReference: {fileID: 0}
    - target: {fileID: 8875863489169544263, guid: 2d5c0b61a6cbe9d47981b239ca0e27cf,
        type: 3}
      propertyPath: m_Tangents.Array.data[249].x
      value: NaN
      objectReference: {fileID: 0}
    - target: {fileID: 8875863489169544263, guid: 2d5c0b61a6cbe9d47981b239ca0e27cf,
        type: 3}
      propertyPath: m_Tangents.Array.data[249].y
      value: NaN
      objectReference: {fileID: 0}
    - target: {fileID: 8875863489169544263, guid: 2d5c0b61a6cbe9d47981b239ca0e27cf,
        type: 3}
      propertyPath: m_Tangents.Array.data[249].z
      value: NaN
      objectReference: {fileID: 0}
    - target: {fileID: 8875863489169544263, guid: 2d5c0b61a6cbe9d47981b239ca0e27cf,
        type: 3}
      propertyPath: m_Tangents.Array.data[250].x
      value: NaN
      objectReference: {fileID: 0}
    - target: {fileID: 8875863489169544263, guid: 2d5c0b61a6cbe9d47981b239ca0e27cf,
        type: 3}
      propertyPath: m_Tangents.Array.data[250].y
      value: NaN
      objectReference: {fileID: 0}
    - target: {fileID: 8875863489169544263, guid: 2d5c0b61a6cbe9d47981b239ca0e27cf,
        type: 3}
      propertyPath: m_Tangents.Array.data[250].z
      value: NaN
      objectReference: {fileID: 0}
    - target: {fileID: 8875863489169544263, guid: 2d5c0b61a6cbe9d47981b239ca0e27cf,
        type: 3}
      propertyPath: m_Tangents.Array.data[251].x
      value: NaN
      objectReference: {fileID: 0}
    - target: {fileID: 8875863489169544263, guid: 2d5c0b61a6cbe9d47981b239ca0e27cf,
        type: 3}
      propertyPath: m_Tangents.Array.data[251].y
      value: NaN
      objectReference: {fileID: 0}
    - target: {fileID: 8875863489169544263, guid: 2d5c0b61a6cbe9d47981b239ca0e27cf,
        type: 3}
      propertyPath: m_Tangents.Array.data[251].z
      value: NaN
      objectReference: {fileID: 0}
    - target: {fileID: 8875863489169544280, guid: 2d5c0b61a6cbe9d47981b239ca0e27cf,
        type: 3}
      propertyPath: m_RootOrder
      value: 2
      objectReference: {fileID: 0}
    - target: {fileID: 8875863489169544280, guid: 2d5c0b61a6cbe9d47981b239ca0e27cf,
        type: 3}
      propertyPath: m_LocalScale.x
      value: 0.7
      objectReference: {fileID: 0}
    - target: {fileID: 8875863489169544280, guid: 2d5c0b61a6cbe9d47981b239ca0e27cf,
        type: 3}
      propertyPath: m_LocalScale.y
      value: 0.7
      objectReference: {fileID: 0}
    - target: {fileID: 8875863489169544280, guid: 2d5c0b61a6cbe9d47981b239ca0e27cf,
        type: 3}
      propertyPath: m_LocalScale.z
      value: 0.7
      objectReference: {fileID: 0}
    - target: {fileID: 8875863489169544280, guid: 2d5c0b61a6cbe9d47981b239ca0e27cf,
        type: 3}
      propertyPath: m_LocalPosition.x
      value: 0.14
      objectReference: {fileID: 0}
    - target: {fileID: 8875863489169544280, guid: 2d5c0b61a6cbe9d47981b239ca0e27cf,
        type: 3}
      propertyPath: m_LocalPosition.y
      value: 1.2999998
      objectReference: {fileID: 0}
    - target: {fileID: 8875863489169544280, guid: 2d5c0b61a6cbe9d47981b239ca0e27cf,
        type: 3}
      propertyPath: m_LocalPosition.z
      value: 0
      objectReference: {fileID: 0}
    - target: {fileID: 8875863489169544280, guid: 2d5c0b61a6cbe9d47981b239ca0e27cf,
        type: 3}
      propertyPath: m_LocalRotation.w
      value: 1
      objectReference: {fileID: 0}
    - target: {fileID: 8875863489169544280, guid: 2d5c0b61a6cbe9d47981b239ca0e27cf,
        type: 3}
      propertyPath: m_LocalRotation.x
      value: -0
      objectReference: {fileID: 0}
    - target: {fileID: 8875863489169544280, guid: 2d5c0b61a6cbe9d47981b239ca0e27cf,
        type: 3}
      propertyPath: m_LocalRotation.y
      value: -0
      objectReference: {fileID: 0}
    - target: {fileID: 8875863489169544280, guid: 2d5c0b61a6cbe9d47981b239ca0e27cf,
        type: 3}
      propertyPath: m_LocalRotation.z
      value: -0
      objectReference: {fileID: 0}
    - target: {fileID: 8875863489169544280, guid: 2d5c0b61a6cbe9d47981b239ca0e27cf,
        type: 3}
      propertyPath: m_LocalEulerAnglesHint.x
      value: 0
      objectReference: {fileID: 0}
    - target: {fileID: 8875863489169544280, guid: 2d5c0b61a6cbe9d47981b239ca0e27cf,
        type: 3}
      propertyPath: m_LocalEulerAnglesHint.y
      value: 0
      objectReference: {fileID: 0}
    - target: {fileID: 8875863489169544280, guid: 2d5c0b61a6cbe9d47981b239ca0e27cf,
        type: 3}
      propertyPath: m_LocalEulerAnglesHint.z
      value: 0
      objectReference: {fileID: 0}
    m_RemovedComponents: []
  m_SourcePrefab: {fileID: 100100000, guid: 2d5c0b61a6cbe9d47981b239ca0e27cf, type: 3}
--- !u!4 &3509432678530753680 stripped
Transform:
  m_CorrespondingSourceObject: {fileID: 8875863489169544280, guid: 2d5c0b61a6cbe9d47981b239ca0e27cf,
    type: 3}
  m_PrefabInstance: {fileID: 5447495984176591048}
  m_PrefabAsset: {fileID: 0}
