%YAML 1.1
%TAG !u! tag:unity3d.com,2011:
--- !u!1 &1441351104582247208
GameObject:
  m_ObjectHideFlags: 0
  m_CorrespondingSourceObject: {fileID: 0}
  m_PrefabInstance: {fileID: 0}
  m_PrefabAsset: {fileID: 0}
  serializedVersion: 6
  m_Component:
  - component: {fileID: 2259048623964019587}
  m_Layer: 0
  m_Name: BSpawn
  m_TagString: Untagged
  m_Icon: {fileID: 0}
  m_NavMeshLayer: 0
  m_StaticEditorFlags: 0
  m_IsActive: 1
--- !u!4 &2259048623964019587
Transform:
  m_ObjectHideFlags: 0
  m_CorrespondingSourceObject: {fileID: 0}
  m_PrefabInstance: {fileID: 0}
  m_PrefabAsset: {fileID: 0}
  m_GameObject: {fileID: 1441351104582247208}
  m_LocalRotation: {x: 0, y: 0, z: 0, w: 1}
  m_LocalPosition: {x: 0, y: 1.02, z: 0.25}
  m_LocalScale: {x: 1, y: 1, z: 1}
  m_Children: []
  m_Father: {fileID: 5751704758863627810}
  m_RootOrder: 2
  m_LocalEulerAnglesHint: {x: 0, y: 0, z: 0}
--- !u!114 &479456096
MonoBehaviour:
  m_ObjectHideFlags: 0
  m_CorrespondingSourceObject: {fileID: 0}
  m_PrefabInstance: {fileID: 0}
  m_PrefabAsset: {fileID: 0}
  m_GameObject: {fileID: 5751704758863403522}
  m_Enabled: 1
  m_EditorHideFlags: 0
  m_Script: {fileID: 11500000, guid: 62899f850307741f2a39c98a8b639597, type: 3}
  m_Name: 
  m_EditorClassIdentifier: 
  m_Actions: {fileID: -944628639613478452, guid: 1f65a9a6fdfffc048ac880a1ee6c056b,
    type: 3}
  m_NotificationBehavior: 0
  m_UIInputModule: {fileID: 0}
  m_DeviceLostEvent:
    m_PersistentCalls:
      m_Calls: []
  m_DeviceRegainedEvent:
    m_PersistentCalls:
      m_Calls: []
  m_ControlsChangedEvent:
    m_PersistentCalls:
      m_Calls: []
  m_ActionEvents: []
  m_NeverAutoSwitchControlSchemes: 0
  m_DefaultControlScheme: 
  m_DefaultActionMap: Player
  m_SplitScreenIndex: -1
  m_Camera: {fileID: 0}
--- !u!114 &4813820569267493258
MonoBehaviour:
  m_ObjectHideFlags: 0
  m_CorrespondingSourceObject: {fileID: 0}
  m_PrefabInstance: {fileID: 0}
  m_PrefabAsset: {fileID: 0}
  m_GameObject: {fileID: 5751704758863403522}
  m_Enabled: 1
  m_EditorHideFlags: 0
  m_Script: {fileID: 11500000, guid: 0556494e46de6af4aad7cb0ce068b95c, type: 3}
  m_Name: 
  m_EditorClassIdentifier: 
  movementspeedbonus: 1
  turnSpeed: 20
  Bomb: {fileID: 7235788446872842302, guid: eb73eaae005dd814ba450eab90278c05, type: 3}
  BombSpawner: {fileID: 2259048623964019587}
--- !u!1001 &5707710460677039972
PrefabInstance:
  m_ObjectHideFlags: 0
  serializedVersion: 2
  m_Modification:
    m_TransformParent: {fileID: 0}
    m_Modifications:
    - target: {fileID: 65290569287606598, guid: c42610935692ee44eb9f46d77436b968,
        type: 3}
      propertyPath: m_RootOrder
      value: 0
      objectReference: {fileID: 0}
    - target: {fileID: 65290569287606598, guid: c42610935692ee44eb9f46d77436b968,
        type: 3}
      propertyPath: m_LocalPosition.x
      value: -1.52
      objectReference: {fileID: 0}
    - target: {fileID: 65290569287606598, guid: c42610935692ee44eb9f46d77436b968,
        type: 3}
      propertyPath: m_LocalPosition.y
      value: 0
      objectReference: {fileID: 0}
    - target: {fileID: 65290569287606598, guid: c42610935692ee44eb9f46d77436b968,
        type: 3}
      propertyPath: m_LocalPosition.z
      value: 16.06
      objectReference: {fileID: 0}
    - target: {fileID: 65290569287606598, guid: c42610935692ee44eb9f46d77436b968,
        type: 3}
      propertyPath: m_LocalRotation.w
      value: 1
      objectReference: {fileID: 0}
    - target: {fileID: 65290569287606598, guid: c42610935692ee44eb9f46d77436b968,
        type: 3}
      propertyPath: m_LocalRotation.x
      value: 0
      objectReference: {fileID: 0}
    - target: {fileID: 65290569287606598, guid: c42610935692ee44eb9f46d77436b968,
        type: 3}
      propertyPath: m_LocalRotation.y
      value: 0
      objectReference: {fileID: 0}
    - target: {fileID: 65290569287606598, guid: c42610935692ee44eb9f46d77436b968,
        type: 3}
      propertyPath: m_LocalRotation.z
      value: 0
      objectReference: {fileID: 0}
    - target: {fileID: 65290569287606598, guid: c42610935692ee44eb9f46d77436b968,
        type: 3}
      propertyPath: m_LocalEulerAnglesHint.x
      value: 0
      objectReference: {fileID: 0}
    - target: {fileID: 65290569287606598, guid: c42610935692ee44eb9f46d77436b968,
        type: 3}
      propertyPath: m_LocalEulerAnglesHint.y
      value: 0
      objectReference: {fileID: 0}
    - target: {fileID: 65290569287606598, guid: c42610935692ee44eb9f46d77436b968,
        type: 3}
      propertyPath: m_LocalEulerAnglesHint.z
      value: 0
      objectReference: {fileID: 0}
    - target: {fileID: 65290569287843174, guid: c42610935692ee44eb9f46d77436b968,
        type: 3}
      propertyPath: m_Name
      value: JohnLemon Variant
      objectReference: {fileID: 0}
    - target: {fileID: 65290569287843174, guid: c42610935692ee44eb9f46d77436b968,
        type: 3}
      propertyPath: m_TagString
      value: Player
      objectReference: {fileID: 0}
    - target: {fileID: 5132038313513289856, guid: c42610935692ee44eb9f46d77436b968,
        type: 3}
      propertyPath: bomb
      value: 
      objectReference: {fileID: 59435801865695238, guid: cdee9d7eadd282541a847ed621fd3c63,
        type: 3}
    - target: {fileID: 5132038313513289856, guid: c42610935692ee44eb9f46d77436b968,
        type: 3}
      propertyPath: bombpoint
      value: 
      objectReference: {fileID: 0}
    m_RemovedComponents:
    - {fileID: 5132038313513289856, guid: c42610935692ee44eb9f46d77436b968, type: 3}
  m_SourcePrefab: {fileID: 100100000, guid: c42610935692ee44eb9f46d77436b968, type: 3}
--- !u!1 &5751704758863403522 stripped
GameObject:
  m_CorrespondingSourceObject: {fileID: 65290569287843174, guid: c42610935692ee44eb9f46d77436b968,
    type: 3}
  m_PrefabInstance: {fileID: 5707710460677039972}
  m_PrefabAsset: {fileID: 0}
--- !u!4 &5751704758863627810 stripped
Transform:
  m_CorrespondingSourceObject: {fileID: 65290569287606598, guid: c42610935692ee44eb9f46d77436b968,
    type: 3}
  m_PrefabInstance: {fileID: 5707710460677039972}
  m_PrefabAsset: {fileID: 0}
